<?xml version="1.0" encoding="UTF-8"?>
<gpx>
  <trk>
    <name>GPS Test: 1 ignoring out of place elevation and time elements</name>
    <trkseg>
        <ele>500.0000000000000</ele>
        <time>2010-10-19T13:40:00Z</time>
      <trkpt lat="43.30000000000000" lon="-87.90000000000000">
        <ele>500.0000000000000</ele>
        <time>2010-10-19T13:40:00Z</time>
      </trkpt>
    </trkseg>
  </trk>
</gpx>