<?xml version="1.0" encoding="UTF-8"?>
<gpx>
    <trkseg>
        <name>2014 Kickapoo Dam Challenge</name>
        <trkseg>
            <trk lon="-90.59430375695229" lat="43.672579787671566">
                <ele>255.0</ele>
                <time>2014-10-04T14:19:36.000Z</time>
            </trk>
        </trkseg>
    </trkseg>
</gpx>
