<?xml version="1.0" encoding="UTF-8"?>
<gpx>
  <trk>
    <name>Browndeer #1</name>
    <trkseg>
      <trkpt lon="-87.94928348623216" lat="43.15518627874553">
        <ele>208.8000030517578</ele>
        <time>2014-02-19T13:17:44.000Z</time>
      </trkpt>
      <trkpt lon="-87.94930066913366" lat="43.1552276853472">
        <ele>208.1999969482422</ele>
        <time>2014-02-19T13:17:46.000Z</time>
      </trkpt>
      <trkpt lon="-87.94929429888725" lat="43.15527495928109">
        <ele>208.1999969482422</ele>
        <time>2014-02-19T13:17:48.000Z</time>
      </trkpt>
      <trkpt lon="-87.94926328584552" lat="43.1553640589118">
        <ele>209.1999969482422</ele>
        <time>2014-02-19T13:17:52.000Z</time>
      </trkpt>
      <trkpt lon="-87.94924425892532" lat="43.15551124513149">
        <ele>210.1999969482422</ele>
        <time>2014-02-19T13:18:00.000Z</time>
      </trkpt>
      <trkpt lon="-87.94926806353033" lat="43.15559674054384">
        <ele>210.60000610351562</ele>
        <time>2014-02-19T13:18:06.000Z</time>
      </trkpt>
      <trkpt lon="-87.94928004965186" lat="43.15562507137656">
        <ele>210.60000610351562</ele>
        <time>2014-02-19T13:18:08.000Z</time>
      </trkpt>
      <trkpt lon="-87.94929195195436" lat="43.15570796839893">
        <ele>209.1999969482422</ele>
        <time>2014-02-19T13:18:13.000Z</time>
      </trkpt>
      <trkpt lon="-87.94930486008525" lat="43.155789859592915">
        <ele>207.8000030517578</ele>
        <time>2014-02-19T13:18:17.000Z</time>
      </trkpt>
      <trkpt lon="-87.94930888339877" lat="43.15582464449108">
        <ele>207.8000030517578</ele>
        <time>2014-02-19T13:18:19.000Z</time>
      </trkpt>
      <trkpt lon="-87.94931164942682" lat="43.15588097088039">
        <ele>207.8000030517578</ele>
        <time>2014-02-19T13:18:23.000Z</time>
      </trkpt>
      <trkpt lon="-87.94931215234101" lat="43.15597627311945">
        <ele>208.1999969482422</ele>
        <time>2014-02-19T13:18:28.000Z</time>
      </trkpt>
      <trkpt lon="-87.94930645264685" lat="43.15606269054115">
        <ele>208.1999969482422</ele>
        <time>2014-02-19T13:18:32.000Z</time>
      </trkpt>
      <trkpt lon="-87.94928968884051" lat="43.15609848126769">
        <ele>208.8000030517578</ele>
        <time>2014-02-19T13:18:34.000Z</time>
      </trkpt>
      <trkpt lon="-87.94923705048859" lat="43.15619219094515">
        <ele>209.8000030517578</ele>
        <time>2014-02-19T13:18:39.000Z</time>
      </trkpt>
      <trkpt lon="-87.94922699220479" lat="43.15621314570308">
        <ele>209.8000030517578</ele>
        <time>2014-02-19T13:18:40.000Z</time>
      </trkpt>
      <trkpt lon="-87.94915767386556" lat="43.156300988048315">
        <ele>211.1999969482422</ele>
        <time>2014-02-19T13:18:47.000Z</time>
      </trkpt>
      <trkpt lon="-87.94909967109561" lat="43.15633937716484">
        <ele>212.1999969482422</ele>
        <time>2014-02-19T13:18:51.000Z</time>
      </trkpt>
      <trkpt lon="-87.9489775467664" lat="43.15640777349472">
        <ele>212.60000610351562</ele>
        <time>2014-02-19T13:18:57.000Z</time>
      </trkpt>
      <trkpt lon="-87.94891124591231" lat="43.156453957781196">
        <ele>212.60000610351562</ele>
        <time>2014-02-19T13:19:01.000Z</time>
      </trkpt>
      <trkpt lon="-87.94887679629028" lat="43.15649368800223">
        <ele>213.0</ele>
        <time>2014-02-19T13:19:03.000Z</time>
      </trkpt>
      <trkpt lon="-87.9487568512559" lat="43.156575663015246">
        <ele>213.60000610351562</ele>
        <time>2014-02-19T13:19:09.000Z</time>
      </trkpt>
      <trkpt lon="-87.94864755123854" lat="43.156662583351135">
        <ele>213.60000610351562</ele>
        <time>2014-02-19T13:19:15.000Z</time>
      </trkpt>
      <trkpt lon="-87.94856767170131" lat="43.156728465110064">
        <ele>213.0</ele>
        <time>2014-02-19T13:19:19.000Z</time>
      </trkpt>
      <trkpt lon="-87.94844814576209" lat="43.156789653003216">
        <ele>212.60000610351562</ele>
        <time>2014-02-19T13:19:24.000Z</time>
      </trkpt>
      <trkpt lon="-87.94834345579147" lat="43.15684866160154">
        <ele>212.1999969482422</ele>
        <time>2014-02-19T13:19:28.000Z</time>
      </trkpt>
      <trkpt lon="-87.94824287295341" lat="43.15687045454979">
        <ele>212.60000610351562</ele>
        <time>2014-02-19T13:19:32.000Z</time>
      </trkpt>
      <trkpt lon="-87.94812829233706" lat="43.15690029412508">
        <ele>212.1999969482422</ele>
        <time>2014-02-19T13:19:37.000Z</time>
      </trkpt>
      <trkpt lon="-87.9480419587344" lat="43.15691797994077">
        <ele>212.1999969482422</ele>
        <time>2014-02-19T13:19:40.000Z</time>
      </trkpt>
      <trkpt lon="-87.94801756739616" lat="43.156927451491356">
        <ele>212.1999969482422</ele>
        <time>2014-02-19T13:19:41.000Z</time>
      </trkpt>
      <trkpt lon="-87.94789829291403" lat="43.15696273930371">
        <ele>212.60000610351562</ele>
        <time>2014-02-19T13:19:47.000Z</time>
      </trkpt>
      <trkpt lon="-87.94780248776078" lat="43.15699718892574">
        <ele>213.60000610351562</ele>
        <time>2014-02-19T13:19:51.000Z</time>
      </trkpt>
      <trkpt lon="-87.94768639840186" lat="43.157048150897026">
        <ele>213.60000610351562</ele>
        <time>2014-02-19T13:19:56.000Z</time>
      </trkpt>
      <trkpt lon="-87.94764314778149" lat="43.15705904737115">
        <ele>213.60000610351562</ele>
        <time>2014-02-19T13:19:58.000Z</time>
      </trkpt>
      <trkpt lon="-87.94752546586096" lat="43.15709928050637">
        <ele>213.60000610351562</ele>
        <time>2014-02-19T13:20:03.000Z</time>
      </trkpt>
      <trkpt lon="-87.94744214974344" lat="43.15712459385395">
        <ele>213.0</ele>
        <time>2014-02-19T13:20:06.000Z</time>
      </trkpt>
      <trkpt lon="-87.94737819582224" lat="43.15714948810637">
        <ele>213.0</ele>
        <time>2014-02-19T13:20:09.000Z</time>
      </trkpt>
      <trkpt lon="-87.94727166183293" lat="43.15719248726964">
        <ele>213.0</ele>
        <time>2014-02-19T13:20:14.000Z</time>
      </trkpt>
      <trkpt lon="-87.94711994938552" lat="43.157239090651274">
        <ele>213.0</ele>
        <time>2014-02-19T13:20:20.000Z</time>
      </trkpt>
      <trkpt lon="-87.94698215089738" lat="43.1572790723294">
        <ele>213.0</ele>
        <time>2014-02-19T13:20:26.000Z</time>
      </trkpt>
      <trkpt lon="-87.94688215479255" lat="43.157342774793506">
        <ele>213.0</ele>
        <time>2014-02-19T13:20:32.000Z</time>
      </trkpt>
      <trkpt lon="-87.9468365572393" lat="43.15742366015911">
        <ele>213.60000610351562</ele>
        <time>2014-02-19T13:20:38.000Z</time>
      </trkpt>
      <trkpt lon="-87.9468431789428" lat="43.157485434785485">
        <ele>213.60000610351562</ele>
        <time>2014-02-19T13:20:42.000Z</time>
      </trkpt>
      <trkpt lon="-87.94687528163195" lat="43.1575536634773">
        <ele>213.0</ele>
        <time>2014-02-19T13:20:46.000Z</time>
      </trkpt>
      <trkpt lon="-87.94691098853946" lat="43.15762775950134">
        <ele>213.0</ele>
        <time>2014-02-19T13:20:51.000Z</time>
      </trkpt>
      <trkpt lon="-87.94694267213345" lat="43.15770814195275">
        <ele>212.60000610351562</ele>
        <time>2014-02-19T13:20:56.000Z</time>
      </trkpt>
      <trkpt lon="-87.94697745703161" lat="43.157780058681965">
        <ele>212.1999969482422</ele>
        <time>2014-02-19T13:21:01.000Z</time>
      </trkpt>
      <trkpt lon="-87.9470107331872" lat="43.1578422524035">
        <ele>212.1999969482422</ele>
        <time>2014-02-19T13:21:05.000Z</time>
      </trkpt>
      <trkpt lon="-87.94704845175147" lat="43.15790888853371">
        <ele>212.1999969482422</ele>
        <time>2014-02-19T13:21:08.000Z</time>
      </trkpt>
      <trkpt lon="-87.9470955580473" lat="43.157984241843224">
        <ele>211.60000610351562</ele>
        <time>2014-02-19T13:21:13.000Z</time>
      </trkpt>
      <trkpt lon="-87.94712774455547" lat="43.15804333426058">
        <ele>211.60000610351562</ele>
        <time>2014-02-19T13:21:17.000Z</time>
      </trkpt>
      <trkpt lon="-87.94716806150973" lat="43.158097146078944">
        <ele>211.1999969482422</ele>
        <time>2014-02-19T13:21:21.000Z</time>
      </trkpt>
      <trkpt lon="-87.94720385223627" lat="43.15815514884889">
        <ele>211.1999969482422</ele>
        <time>2014-02-19T13:21:25.000Z</time>
      </trkpt>
      <trkpt lon="-87.94726084917784" lat="43.158228155225515">
        <ele>211.60000610351562</ele>
        <time>2014-02-19T13:21:30.000Z</time>
      </trkpt>
      <trkpt lon="-87.94733963906765" lat="43.15831985324621">
        <ele>211.60000610351562</ele>
        <time>2014-02-19T13:21:36.000Z</time>
      </trkpt>
      <trkpt lon="-87.94738464988768" lat="43.15837366506457">
        <ele>211.60000610351562</ele>
        <time>2014-02-19T13:21:40.000Z</time>
      </trkpt>
      <trkpt lon="-87.94744055718184" lat="43.15844055265188">
        <ele>211.1999969482422</ele>
        <time>2014-02-19T13:21:45.000Z</time>
      </trkpt>
      <trkpt lon="-87.94747458770871" lat="43.15848556347191">
        <ele>211.1999969482422</ele>
        <time>2014-02-19T13:21:50.000Z</time>
      </trkpt>
      <trkpt lon="-87.94751046225429" lat="43.15852655097842">
        <ele>209.8000030517578</ele>
        <time>2014-02-19T13:21:57.000Z</time>
      </trkpt>
      <trkpt lon="-87.94755446724594" lat="43.15857835114002">
        <ele>209.1999969482422</ele>
        <time>2014-02-19T13:22:01.000Z</time>
      </trkpt>
      <trkpt lon="-87.9476238694042" lat="43.15866317600012">
        <ele>208.1999969482422</ele>
        <time>2014-02-19T13:22:07.000Z</time>
      </trkpt>
      <trkpt lon="-87.94767533428967" lat="43.158721178770065">
        <ele>207.8000030517578</ele>
        <time>2014-02-19T13:22:11.000Z</time>
      </trkpt>
      <trkpt lon="-87.94774708338082" lat="43.15879535861313">
        <ele>206.8000030517578</ele>
        <time>2014-02-19T13:22:16.000Z</time>
      </trkpt>
      <trkpt lon="-87.94779008254409" lat="43.158839950338006">
        <ele>206.8000030517578</ele>
        <time>2014-02-19T13:22:19.000Z</time>
      </trkpt>
      <trkpt lon="-87.9478358477354" lat="43.158883452415466">
        <ele>206.39999389648438</ele>
        <time>2014-02-19T13:22:22.000Z</time>
      </trkpt>
      <trkpt lon="-87.94791304506361" lat="43.15895645879209">
        <ele>206.39999389648438</ele>
        <time>2014-02-19T13:22:27.000Z</time>
      </trkpt>
      <trkpt lon="-87.94796476140618" lat="43.1590061634779">
        <ele>205.8000030517578</ele>
        <time>2014-02-19T13:22:31.000Z</time>
      </trkpt>
      <trkpt lon="-87.94801379553974" lat="43.15905645489693">
        <ele>205.8000030517578</ele>
        <time>2014-02-19T13:22:35.000Z</time>
      </trkpt>
      <trkpt lon="-87.94806316494942" lat="43.15910825505853">
        <ele>205.39999389648438</ele>
        <time>2014-02-19T13:22:39.000Z</time>
      </trkpt>
      <trkpt lon="-87.94812477193773" lat="43.15916935913265">
        <ele>204.8000030517578</ele>
        <time>2014-02-19T13:22:44.000Z</time>
      </trkpt>
      <trkpt lon="-87.9481902346015" lat="43.159235240891576">
        <ele>204.8000030517578</ele>
        <time>2014-02-19T13:22:49.000Z</time>
      </trkpt>
      <trkpt lon="-87.94825544580817" lat="43.15929944626987">
        <ele>204.8000030517578</ele>
        <time>2014-02-19T13:22:54.000Z</time>
      </trkpt>
      <trkpt lon="-87.94832048937678" lat="43.15935987979174">
        <ele>204.39999389648438</ele>
        <time>2014-02-19T13:22:59.000Z</time>
      </trkpt>
      <trkpt lon="-87.94838486239314" lat="43.15942006185651">
        <ele>204.39999389648438</ele>
        <time>2014-02-19T13:23:04.000Z</time>
      </trkpt>
      <trkpt lon="-87.94845376163721" lat="43.15948309376836">
        <ele>204.0</ele>
        <time>2014-02-19T13:23:09.000Z</time>
      </trkpt>
      <trkpt lon="-87.94851905666292" lat="43.159540593624115">
        <ele>204.0</ele>
        <time>2014-02-19T13:23:14.000Z</time>
      </trkpt>
      <trkpt lon="-87.94858384877443" lat="43.159607565030456">
        <ele>203.39999389648438</ele>
        <time>2014-02-19T13:23:20.000Z</time>
      </trkpt>
      <trkpt lon="-87.94863807968795" lat="43.159658862277865">
        <ele>204.0</ele>
        <time>2014-02-19T13:23:25.000Z</time>
      </trkpt>
      <trkpt lon="-87.94870966114104" lat="43.1597313657403">
        <ele>204.0</ele>
        <time>2014-02-19T13:23:31.000Z</time>
      </trkpt>
      <trkpt lon="-87.94876799918711" lat="43.15979456529021">
        <ele>203.39999389648438</ele>
        <time>2014-02-19T13:23:36.000Z</time>
      </trkpt>
      <trkpt lon="-87.94885483570397" lat="43.15989498049021">
        <ele>203.39999389648438</ele>
        <time>2014-02-19T13:23:43.000Z</time>
      </trkpt>
      <trkpt lon="-87.94891736470163" lat="43.15996019169688">
        <ele>203.39999389648438</ele>
        <time>2014-02-19T13:23:48.000Z</time>
      </trkpt>
      <trkpt lon="-87.94898794032633" lat="43.160029258579016">
        <ele>203.39999389648438</ele>
        <time>2014-02-19T13:23:53.000Z</time>
      </trkpt>
      <trkpt lon="-87.94903496280313" lat="43.16008273512125">
        <ele>203.39999389648438</ele>
        <time>2014-02-19T13:23:57.000Z</time>
      </trkpt>
      <trkpt lon="-87.94910243712366" lat="43.160149874165654">
        <ele>204.0</ele>
        <time>2014-02-19T13:24:02.000Z</time>
      </trkpt>
      <trkpt lon="-87.94915633276105" lat="43.160194382071495">
        <ele>204.39999389648438</ele>
        <time>2014-02-19T13:24:06.000Z</time>
      </trkpt>
      <trkpt lon="-87.9492349550128" lat="43.16025766544044">
        <ele>205.39999389648438</ele>
        <time>2014-02-19T13:24:11.000Z</time>
      </trkpt>
      <trkpt lon="-87.94929505325854" lat="43.160305274650455">
        <ele>206.39999389648438</ele>
        <time>2014-02-19T13:24:15.000Z</time>
      </trkpt>
      <trkpt lon="-87.94935674406588" lat="43.16036319360137">
        <ele>207.39999389648438</ele>
        <time>2014-02-19T13:24:20.000Z</time>
      </trkpt>
      <trkpt lon="-87.94942614622414" lat="43.1604253873229">
        <ele>207.8000030517578</ele>
        <time>2014-02-19T13:24:25.000Z</time>
      </trkpt>
      <trkpt lon="-87.94950074516237" lat="43.16049948334694">
        <ele>208.8000030517578</ele>
        <time>2014-02-19T13:24:31.000Z</time>
      </trkpt>
      <trkpt lon="-87.94954567216337" lat="43.16055044531822">
        <ele>209.8000030517578</ele>
        <time>2014-02-19T13:24:35.000Z</time>
      </trkpt>
      <trkpt lon="-87.94959495775402" lat="43.16061305813491">
        <ele>209.8000030517578</ele>
        <time>2014-02-19T13:24:40.000Z</time>
      </trkpt>
      <trkpt lon="-87.94963418506086" lat="43.16068707033992">
        <ele>210.1999969482422</ele>
        <time>2014-02-19T13:24:45.000Z</time>
      </trkpt>
      <trkpt lon="-87.94964365661144" lat="43.16075353883207">
        <ele>210.60000610351562</ele>
        <time>2014-02-19T13:24:50.000Z</time>
      </trkpt>
      <trkpt lon="-87.94965606182814" lat="43.160803662613034">
        <ele>211.1999969482422</ele>
        <time>2014-02-19T13:24:56.000Z</time>
      </trkpt>
      <trkpt lon="-87.94964374043047" lat="43.16081925295293">
        <ele>211.60000610351562</ele>
        <time>2014-02-19T13:25:01.000Z</time>
      </trkpt>
      <trkpt lon="-87.9496617615223" lat="43.160831071436405">
        <ele>212.1999969482422</ele>
        <time>2014-02-19T13:25:05.000Z</time>
      </trkpt>
      <trkpt lon="-87.949705934152" lat="43.16090013831854">
        <ele>212.60000610351562</ele>
        <time>2014-02-19T13:25:11.000Z</time>
      </trkpt>
      <trkpt lon="-87.9497249610722" lat="43.160943891853094">
        <ele>212.60000610351562</ele>
        <time>2014-02-19T13:25:15.000Z</time>
      </trkpt>
      <trkpt lon="-87.94977257028222" lat="43.16102854907513">
        <ele>213.0</ele>
        <time>2014-02-19T13:25:21.000Z</time>
      </trkpt>
      <trkpt lon="-87.94981154613197" lat="43.16108093596995">
        <ele>213.0</ele>
        <time>2014-02-19T13:25:25.000Z</time>
      </trkpt>
      <trkpt lon="-87.9498734883964" lat="43.16113315522671">
        <ele>213.60000610351562</ele>
        <time>2014-02-19T13:25:29.000Z</time>
      </trkpt>
      <trkpt lon="-87.94995227828622" lat="43.16116844303906">
        <ele>214.0</ele>
        <time>2014-02-19T13:25:33.000Z</time>
      </trkpt>
      <trkpt lon="-87.95005244202912" lat="43.161209262907505">
        <ele>213.60000610351562</ele>
        <time>2014-02-19T13:25:37.000Z</time>
      </trkpt>
      <trkpt lon="-87.95019996352494" lat="43.161268858239055">
        <ele>213.60000610351562</ele>
        <time>2014-02-19T13:25:43.000Z</time>
      </trkpt>
      <trkpt lon="-87.95030415058136" lat="43.161321161314845">
        <ele>214.0</ele>
        <time>2014-02-19T13:25:47.000Z</time>
      </trkpt>
      <trkpt lon="-87.95039978809655" lat="43.161372458562255">
        <ele>215.0</ele>
        <time>2014-02-19T13:25:51.000Z</time>
      </trkpt>
      <trkpt lon="-87.9504609759897" lat="43.1614116858691">
        <ele>215.0</ele>
        <time>2014-02-19T13:25:54.000Z</time>
      </trkpt>
      <trkpt lon="-87.95056667178869" lat="43.16146834753454">
        <ele>214.60000610351562</ele>
        <time>2014-02-19T13:25:59.000Z</time>
      </trkpt>
      <trkpt lon="-87.95066113583744" lat="43.16153096035123">
        <ele>214.0</ele>
        <time>2014-02-19T13:26:04.000Z</time>
      </trkpt>
      <trkpt lon="-87.95076155103743" lat="43.16158468835056">
        <ele>213.60000610351562</ele>
        <time>2014-02-19T13:26:09.000Z</time>
      </trkpt>
      <trkpt lon="-87.9508946556598" lat="43.16165115684271">
        <ele>213.60000610351562</ele>
        <time>2014-02-19T13:26:15.000Z</time>
      </trkpt>
      <trkpt lon="-87.95099314302206" lat="43.16168887540698">
        <ele>213.60000610351562</ele>
        <time>2014-02-19T13:26:20.000Z</time>
      </trkpt>
      <trkpt lon="-87.95109397731721" lat="43.161716451868415">
        <ele>212.60000610351562</ele>
        <time>2014-02-19T13:26:25.000Z</time>
      </trkpt>
      <trkpt lon="-87.95121509581804" lat="43.1617481354624">
        <ele>212.60000610351562</ele>
        <time>2014-02-19T13:26:31.000Z</time>
      </trkpt>
      <trkpt lon="-87.95134333893657" lat="43.161776550114155">
        <ele>212.1999969482422</ele>
        <time>2014-02-19T13:26:37.000Z</time>
      </trkpt>
      <trkpt lon="-87.95144115574658" lat="43.16180136054754">
        <ele>212.1999969482422</ele>
        <time>2014-02-19T13:26:41.000Z</time>
      </trkpt>
      <trkpt lon="-87.95151374302804" lat="43.16182374022901">
        <ele>212.1999969482422</ele>
        <time>2014-02-19T13:26:44.000Z</time>
      </trkpt>
      <trkpt lon="-87.95159705914557" lat="43.161847963929176">
        <ele>212.1999969482422</ele>
        <time>2014-02-19T13:26:47.000Z</time>
      </trkpt>
      <trkpt lon="-87.9517009947449" lat="43.16187998279929">
        <ele>212.1999969482422</ele>
        <time>2014-02-19T13:26:51.000Z</time>
      </trkpt>
      <trkpt lon="-87.95178405940533" lat="43.161900183185935">
        <ele>211.60000610351562</ele>
        <time>2014-02-19T13:26:55.000Z</time>
      </trkpt>
      <trkpt lon="-87.95186067000031" lat="43.16192834638059">
        <ele>211.60000610351562</ele>
        <time>2014-02-19T13:26:59.000Z</time>
      </trkpt>
      <trkpt lon="-87.95192814432085" lat="43.16194737330079">
        <ele>212.1999969482422</ele>
        <time>2014-02-19T13:27:06.000Z</time>
      </trkpt>
      <trkpt lon="-87.95205605216324" lat="43.16198056563735">
        <ele>212.60000610351562</ele>
        <time>2014-02-19T13:27:12.000Z</time>
      </trkpt>
      <trkpt lon="-87.95216015540063" lat="43.16200789064169">
        <ele>212.60000610351562</ele>
        <time>2014-02-19T13:27:17.000Z</time>
      </trkpt>
      <trkpt lon="-87.95226065441966" lat="43.16200856119394">
        <ele>213.60000610351562</ele>
        <time>2014-02-19T13:27:22.000Z</time>
      </trkpt>
      <trkpt lon="-87.95227725058794" lat="43.16200889647007">
        <ele>213.60000610351562</ele>
        <time>2014-02-19T13:27:23.000Z</time>
      </trkpt>
      <trkpt lon="-87.95238135382533" lat="43.16200076602399">
        <ele>213.60000610351562</ele>
        <time>2014-02-19T13:27:29.000Z</time>
      </trkpt>
      <trkpt lon="-87.95247883535922" lat="43.16198115237057">
        <ele>214.60000610351562</ele>
        <time>2014-02-19T13:27:34.000Z</time>
      </trkpt>
      <trkpt lon="-87.95256449840963" lat="43.161957347765565">
        <ele>215.0</ele>
        <time>2014-02-19T13:27:38.000Z</time>
      </trkpt>
      <trkpt lon="-87.9526452999562" lat="43.16194133833051">
        <ele>215.0</ele>
        <time>2014-02-19T13:27:42.000Z</time>
      </trkpt>
      <trkpt lon="-87.9527525883168" lat="43.16191853955388">
        <ele>215.39999389648438</ele>
        <time>2014-02-19T13:27:47.000Z</time>
      </trkpt>
      <trkpt lon="-87.95283976010978" lat="43.161897668614984">
        <ele>216.39999389648438</ele>
        <time>2014-02-19T13:27:52.000Z</time>
      </trkpt>
      <trkpt lon="-87.95287119224668" lat="43.16189129836857">
        <ele>217.39999389648438</ele>
        <time>2014-02-19T13:27:57.000Z</time>
      </trkpt>
      <trkpt lon="-87.9528440348804" lat="43.16189515404403">
        <ele>217.39999389648438</ele>
        <time>2014-02-19T13:28:02.000Z</time>
      </trkpt>
      <trkpt lon="-87.95286398380995" lat="43.161890963092446">
        <ele>217.8000030517578</ele>
        <time>2014-02-19T13:28:08.000Z</time>
      </trkpt>
      <trkpt lon="-87.95295936986804" lat="43.16187176853418">
        <ele>218.39999389648438</ele>
        <time>2014-02-19T13:28:13.000Z</time>
      </trkpt>
      <trkpt lon="-87.9530977550894" lat="43.161838157102466">
        <ele>217.8000030517578</ele>
        <time>2014-02-19T13:28:19.000Z</time>
      </trkpt>
      <trkpt lon="-87.95320093631744" lat="43.161802953109145">
        <ele>217.8000030517578</ele>
        <time>2014-02-19T13:28:23.000Z</time>
      </trkpt>
      <trkpt lon="-87.95332306064665" lat="43.16176816821098">
        <ele>217.8000030517578</ele>
        <time>2014-02-19T13:28:29.000Z</time>
      </trkpt>
      <trkpt lon="-87.95343923382461" lat="43.16173539496958">
        <ele>217.39999389648438</ele>
        <time>2014-02-19T13:28:35.000Z</time>
      </trkpt>
      <trkpt lon="-87.95357543975115" lat="43.161703292280436">
        <ele>216.0</ele>
        <time>2014-02-19T13:28:42.000Z</time>
      </trkpt>
      <trkpt lon="-87.95367367565632" lat="43.16167864948511">
        <ele>216.39999389648438</ele>
        <time>2014-02-19T13:28:47.000Z</time>
      </trkpt>
      <trkpt lon="-87.95381348580122" lat="43.16164939664304">
        <ele>216.39999389648438</ele>
        <time>2014-02-19T13:28:54.000Z</time>
      </trkpt>
      <trkpt lon="-87.95392144471407" lat="43.161631962284446">
        <ele>216.39999389648438</ele>
        <time>2014-02-19T13:29:00.000Z</time>
      </trkpt>
      <trkpt lon="-87.95405589044094" lat="43.16161469556391">
        <ele>217.0</ele>
        <time>2014-02-19T13:29:07.000Z</time>
      </trkpt>
      <trkpt lon="-87.95418036170304" lat="43.161597261205316">
        <ele>217.0</ele>
        <time>2014-02-19T13:29:13.000Z</time>
      </trkpt>
      <trkpt lon="-87.95429418794811" lat="43.161579659208655">
        <ele>217.0</ele>
        <time>2014-02-19T13:29:19.000Z</time>
      </trkpt>
      <trkpt lon="-87.95438194647431" lat="43.16156809218228">
        <ele>217.0</ele>
        <time>2014-02-19T13:29:24.000Z</time>
      </trkpt>
      <trkpt lon="-87.95449669472873" lat="43.16155099309981">
        <ele>217.0</ele>
        <time>2014-02-19T13:29:30.000Z</time>
      </trkpt>
      <trkpt lon="-87.95459409244359" lat="43.16153825260699">
        <ele>217.0</ele>
        <time>2014-02-19T13:29:36.000Z</time>
      </trkpt>
      <trkpt lon="-87.95462644658983" lat="43.16153456456959">
        <ele>217.0</ele>
        <time>2014-02-19T13:29:38.000Z</time>
      </trkpt>
      <trkpt lon="-87.9546570405364" lat="43.16153146326542">
        <ele>217.39999389648438</ele>
        <time>2014-02-19T13:29:44.000Z</time>
      </trkpt>
      <trkpt lon="-87.95468394644558" lat="43.16152467392385">
        <ele>217.0</ele>
        <time>2014-02-19T13:30:05.000Z</time>
      </trkpt>
      <trkpt lon="-87.95479835942388" lat="43.16151059232652">
        <ele>216.0</ele>
        <time>2014-02-19T13:30:11.000Z</time>
      </trkpt>
      <trkpt lon="-87.95493364334106" lat="43.161502964794636">
        <ele>215.39999389648438</ele>
        <time>2014-02-19T13:30:17.000Z</time>
      </trkpt>
      <trkpt lon="-87.9550785664469" lat="43.161495169624686">
        <ele>215.39999389648438</ele>
        <time>2014-02-19T13:30:23.000Z</time>
      </trkpt>
      <trkpt lon="-87.95518325641751" lat="43.16150715574622">
        <ele>215.39999389648438</ele>
        <time>2014-02-19T13:30:29.000Z</time>
      </trkpt>
      <trkpt lon="-87.95530026778579" lat="43.161546885967255">
        <ele>216.0</ele>
        <time>2014-02-19T13:30:36.000Z</time>
      </trkpt>
      <trkpt lon="-87.95538668520749" lat="43.161589968949556">
        <ele>215.0</ele>
        <time>2014-02-19T13:30:42.000Z</time>
      </trkpt>
      <trkpt lon="-87.95544569380581" lat="43.161621652543545">
        <ele>214.60000610351562</ele>
        <time>2014-02-19T13:30:46.000Z</time>
      </trkpt>
      <trkpt lon="-87.95555926859379" lat="43.16168015822768">
        <ele>214.0</ele>
        <time>2014-02-19T13:30:53.000Z</time>
      </trkpt>
      <trkpt lon="-87.95565029606223" lat="43.16172994673252">
        <ele>214.60000610351562</ele>
        <time>2014-02-19T13:30:58.000Z</time>
      </trkpt>
      <trkpt lon="-87.95574568212032" lat="43.16177713684738">
        <ele>214.0</ele>
        <time>2014-02-19T13:31:04.000Z</time>
      </trkpt>
      <trkpt lon="-87.95582908205688" lat="43.161814184859395">
        <ele>214.0</ele>
        <time>2014-02-19T13:31:09.000Z</time>
      </trkpt>
      <trkpt lon="-87.95584576204419" lat="43.161824997514486">
        <ele>214.0</ele>
        <time>2014-02-19T13:31:10.000Z</time>
      </trkpt>
      <trkpt lon="-87.95593075454235" lat="43.16187025979161">
        <ele>214.60000610351562</ele>
        <time>2014-02-19T13:31:15.000Z</time>
      </trkpt>
      <trkpt lon="-87.95599764212966" lat="43.16190227866173">
        <ele>215.0</ele>
        <time>2014-02-19T13:31:19.000Z</time>
      </trkpt>
      <trkpt lon="-87.95601323246956" lat="43.16190864890814">
        <ele>215.39999389648438</ele>
        <time>2014-02-19T13:31:20.000Z</time>
      </trkpt>
      <trkpt lon="-87.95610174536705" lat="43.161942260339856">
        <ele>215.39999389648438</ele>
        <time>2014-02-19T13:31:26.000Z</time>
      </trkpt>
      <trkpt lon="-87.95618246309459" lat="43.161985762417316">
        <ele>216.0</ele>
        <time>2014-02-19T13:31:32.000Z</time>
      </trkpt>
      <trkpt lon="-87.95620844699442" lat="43.16199665889144">
        <ele>216.0</ele>
        <time>2014-02-19T13:31:34.000Z</time>
      </trkpt>
      <trkpt lon="-87.9562704730779" lat="43.16202465444803">
        <ele>216.0</ele>
        <time>2014-02-19T13:31:39.000Z</time>
      </trkpt>
      <trkpt lon="-87.95635496266186" lat="43.16206664778292">
        <ele>216.39999389648438</ele>
        <time>2014-02-19T13:31:45.000Z</time>
      </trkpt>
      <trkpt lon="-87.95643048360944" lat="43.16209229640663">
        <ele>217.39999389648438</ele>
        <time>2014-02-19T13:31:50.000Z</time>
      </trkpt>
      <trkpt lon="-87.95647297985852" lat="43.162103863433">
        <ele>218.39999389648438</ele>
        <time>2014-02-19T13:31:53.000Z</time>
      </trkpt>
      <trkpt lon="-87.95656786300242" lat="43.16211216151714">
        <ele>219.39999389648438</ele>
        <time>2014-02-19T13:31:59.000Z</time>
      </trkpt>
      <trkpt lon="-87.956648664549" lat="43.16208316013217">
        <ele>219.8000030517578</ele>
        <time>2014-02-19T13:32:04.000Z</time>
      </trkpt>
      <trkpt lon="-87.95673835091293" lat="43.162061953917146">
        <ele>219.8000030517578</ele>
        <time>2014-02-19T13:32:09.000Z</time>
      </trkpt>
      <trkpt lon="-87.95682636089623" lat="43.162049632519484">
        <ele>219.8000030517578</ele>
        <time>2014-02-19T13:32:14.000Z</time>
      </trkpt>
      <trkpt lon="-87.95691546052694" lat="43.16202708519995">
        <ele>219.39999389648438</ele>
        <time>2014-02-19T13:32:19.000Z</time>
      </trkpt>
      <trkpt lon="-87.95698737725616" lat="43.16203664056957">
        <ele>218.8000030517578</ele>
        <time>2014-02-19T13:32:24.000Z</time>
      </trkpt>
      <trkpt lon="-87.9570559412241" lat="43.16208257339895">
        <ele>218.8000030517578</ele>
        <time>2014-02-19T13:32:29.000Z</time>
      </trkpt>
      <trkpt lon="-87.95711654238403" lat="43.16210906021297">
        <ele>218.8000030517578</ele>
        <time>2014-02-19T13:32:33.000Z</time>
      </trkpt>
      <trkpt lon="-87.95720036141574" lat="43.16210419870913">
        <ele>219.39999389648438</ele>
        <time>2014-02-19T13:32:37.000Z</time>
      </trkpt>
      <trkpt lon="-87.957330532372" lat="43.162070754915476">
        <ele>219.8000030517578</ele>
        <time>2014-02-19T13:32:43.000Z</time>
      </trkpt>
      <trkpt lon="-87.95744025148451" lat="43.162036472931504">
        <ele>220.1999969482422</ele>
        <time>2014-02-19T13:32:48.000Z</time>
      </trkpt>
      <trkpt lon="-87.95752985402942" lat="43.16200487315655">
        <ele>219.8000030517578</ele>
        <time>2014-02-19T13:32:53.000Z</time>
      </trkpt>
      <trkpt lon="-87.95761023648083" lat="43.1619624607265">
        <ele>219.8000030517578</ele>
        <time>2014-02-19T13:32:58.000Z</time>
      </trkpt>
      <trkpt lon="-87.95769807882607" lat="43.16189129836857">
        <ele>219.39999389648438</ele>
        <time>2014-02-19T13:33:04.000Z</time>
      </trkpt>
      <trkpt lon="-87.957758679986" lat="43.161829859018326">
        <ele>219.8000030517578</ele>
        <time>2014-02-19T13:33:09.000Z</time>
      </trkpt>
      <trkpt lon="-87.95781089924276" lat="43.1617309525609">
        <ele>220.1999969482422</ele>
        <time>2014-02-19T13:33:16.000Z</time>
      </trkpt>
      <trkpt lon="-87.95782808214426" lat="43.16165526397526">
        <ele>220.8000030517578</ele>
        <time>2014-02-19T13:33:21.000Z</time>
      </trkpt>
      <trkpt lon="-87.95782095752656" lat="43.161555686965585">
        <ele>220.8000030517578</ele>
        <time>2014-02-19T13:33:27.000Z</time>
      </trkpt>
      <trkpt lon="-87.95780377462506" lat="43.16147278994322">
        <ele>219.8000030517578</ele>
        <time>2014-02-19T13:33:33.000Z</time>
      </trkpt>
      <trkpt lon="-87.9577898606658" lat="43.161396933719516">
        <ele>219.39999389648438</ele>
        <time>2014-02-19T13:33:38.000Z</time>
      </trkpt>
      <trkpt lon="-87.95778583735228" lat="43.16136206500232">
        <ele>219.39999389648438</ele>
        <time>2014-02-19T13:33:40.000Z</time>
      </trkpt>
      <trkpt lon="-87.95778583735228" lat="43.16136206500232">
        <ele>219.39999389648438</ele>
        <time>2014-02-19T13:33:40.000Z</time>
      </trkpt>
      <trkpt lon="-87.95777938328683" lat="43.16133105196059">
        <ele>218.8000030517578</ele>
        <time>2014-02-19T13:33:42.000Z</time>
      </trkpt>
      <trkpt lon="-87.95776907354593" lat="43.161281934008">
        <ele>218.8000030517578</ele>
        <time>2014-02-19T13:33:45.000Z</time>
      </trkpt>
      <trkpt lon="-87.95775289647281" lat="43.16123625263572">
        <ele>218.8000030517578</ele>
        <time>2014-02-19T13:33:49.000Z</time>
      </trkpt>
      <trkpt lon="-87.95773663558066" lat="43.16117724403739">
        <ele>218.39999389648438</ele>
        <time>2014-02-19T13:33:54.000Z</time>
      </trkpt>
      <trkpt lon="-87.95773529447615" lat="43.16110113635659">
        <ele>217.8000030517578</ele>
        <time>2014-02-19T13:33:59.000Z</time>
      </trkpt>
      <trkpt lon="-87.95772473327816" lat="43.16103458404541">
        <ele>217.8000030517578</ele>
        <time>2014-02-19T13:34:03.000Z</time>
      </trkpt>
      <trkpt lon="-87.957703191787" lat="43.16094615496695">
        <ele>217.39999389648438</ele>
        <time>2014-02-19T13:34:08.000Z</time>
      </trkpt>
      <trkpt lon="-87.95769858174026" lat="43.16087373532355">
        <ele>217.0</ele>
        <time>2014-02-19T13:34:12.000Z</time>
      </trkpt>
      <trkpt lon="-87.95770419761539" lat="43.160776756703854">
        <ele>216.39999389648438</ele>
        <time>2014-02-19T13:34:18.000Z</time>
      </trkpt>
      <trkpt lon="-87.95771199278533" lat="43.16071406006813">
        <ele>216.0</ele>
        <time>2014-02-19T13:34:22.000Z</time>
      </trkpt>
      <trkpt lon="-87.95771995559335" lat="43.16062957048416">
        <ele>216.0</ele>
        <time>2014-02-19T13:34:27.000Z</time>
      </trkpt>
      <trkpt lon="-87.95775993727148" lat="43.16049546003342">
        <ele>214.0</ele>
        <time>2014-02-19T13:34:34.000Z</time>
      </trkpt>
      <trkpt lon="-87.95775935053825" lat="43.16040024161339">
        <ele>213.60000610351562</ele>
        <time>2014-02-19T13:34:39.000Z</time>
      </trkpt>
      <trkpt lon="-87.95775306411088" lat="43.16032715141773">
        <ele>213.60000610351562</ele>
        <time>2014-02-19T13:34:44.000Z</time>
      </trkpt>
      <trkpt lon="-87.95774459838867" lat="43.16023226827383">
        <ele>213.0</ele>
        <time>2014-02-19T13:34:50.000Z</time>
      </trkpt>
      <trkpt lon="-87.95769774354994" lat="43.16016303375363">
        <ele>213.0</ele>
        <time>2014-02-19T13:34:55.000Z</time>
      </trkpt>
      <trkpt lon="-87.95764359645545" lat="43.16007393412292">
        <ele>213.0</ele>
        <time>2014-02-19T13:35:01.000Z</time>
      </trkpt>
      <trkpt lon="-87.95760185457766" lat="43.16000017337501">
        <ele>213.60000610351562</ele>
        <time>2014-02-19T13:35:07.000Z</time>
      </trkpt>
      <trkpt lon="-87.95756698586047" lat="43.15993647091091">
        <ele>213.60000610351562</ele>
        <time>2014-02-19T13:35:12.000Z</time>
      </trkpt>
      <trkpt lon="-87.95751719735563" lat="43.15984963439405">
        <ele>214.0</ele>
        <time>2014-02-19T13:35:18.000Z</time>
      </trkpt>
      <trkpt lon="-87.95746766030788" lat="43.15976816229522">
        <ele>214.60000610351562</ele>
        <time>2014-02-19T13:35:23.000Z</time>
      </trkpt>
      <trkpt lon="-87.95742709189653" lat="43.1597038730979">
        <ele>214.60000610351562</ele>
        <time>2014-02-19T13:35:27.000Z</time>
      </trkpt>
      <trkpt lon="-87.95739046297967" lat="43.159643355757">
        <ele>214.60000610351562</ele>
        <time>2014-02-19T13:35:31.000Z</time>
      </trkpt>
      <trkpt lon="-87.95735316351056" lat="43.1595812458545">
        <ele>214.0</ele>
        <time>2014-02-19T13:35:36.000Z</time>
      </trkpt>
      <trkpt lon="-87.95731427147985" lat="43.159515196457505">
        <ele>214.60000610351562</ele>
        <time>2014-02-19T13:35:41.000Z</time>
      </trkpt>
      <trkpt lon="-87.95728158205748" lat="43.15946934744716">
        <ele>215.0</ele>
        <time>2014-02-19T13:35:45.000Z</time>
      </trkpt>
      <trkpt lon="-87.95720505528152" lat="43.159385276958346">
        <ele>215.39999389648438</ele>
        <time>2014-02-19T13:35:52.000Z</time>
      </trkpt>
      <trkpt lon="-87.95715275220573" lat="43.159337835386395">
        <ele>216.0</ele>
        <time>2014-02-19T13:35:56.000Z</time>
      </trkpt>
      <trkpt lon="-87.9571024607867" lat="43.159295255318284">
        <ele>216.0</ele>
        <time>2014-02-19T13:36:00.000Z</time>
      </trkpt>
      <trkpt lon="-87.95704864896834" lat="43.15926047042012">
        <ele>216.39999389648438</ele>
        <time>2014-02-19T13:36:05.000Z</time>
      </trkpt>
      <trkpt lon="-87.9570382554084" lat="43.15925368107855">
        <ele>216.39999389648438</ele>
        <time>2014-02-19T13:36:06.000Z</time>
      </trkpt>
      <trkpt lon="-87.95697304420173" lat="43.15922459587455">
        <ele>217.39999389648438</ele>
        <time>2014-02-19T13:36:12.000Z</time>
      </trkpt>
      <trkpt lon="-87.95690464787185" lat="43.15920364111662">
        <ele>217.8000030517578</ele>
        <time>2014-02-19T13:36:18.000Z</time>
      </trkpt>
      <trkpt lon="-87.95684798620641" lat="43.159182937815785">
        <ele>217.8000030517578</ele>
        <time>2014-02-19T13:36:25.000Z</time>
      </trkpt>
      <trkpt lon="-87.95672535896301" lat="43.15916349180043">
        <ele>217.8000030517578</ele>
        <time>2014-02-19T13:36:32.000Z</time>
      </trkpt>
      <trkpt lon="-87.95665947720408" lat="43.15916013903916">
        <ele>217.8000030517578</ele>
        <time>2014-02-19T13:36:35.000Z</time>
      </trkpt>
      <trkpt lon="-87.95654246583581" lat="43.159176567569375">
        <ele>218.39999389648438</ele>
        <time>2014-02-19T13:36:41.000Z</time>
      </trkpt>
      <trkpt lon="-87.95645085163414" lat="43.15918645821512">
        <ele>218.8000030517578</ele>
        <time>2014-02-19T13:36:45.000Z</time>
      </trkpt>
      <trkpt lon="-87.95633375644684" lat="43.159184865653515">
        <ele>218.8000030517578</ele>
        <time>2014-02-19T13:36:50.000Z</time>
      </trkpt>
      <trkpt lon="-87.95621573925018" lat="43.15917614847422">
        <ele>218.8000030517578</ele>
        <time>2014-02-19T13:36:55.000Z</time>
      </trkpt>
      <trkpt lon="-87.9561512824148" lat="43.15918126143515">
        <ele>218.39999389648438</ele>
        <time>2014-02-19T13:36:58.000Z</time>
      </trkpt>
      <trkpt lon="-87.95605279505253" lat="43.15917296335101">
        <ele>217.8000030517578</ele>
        <time>2014-02-19T13:37:03.000Z</time>
      </trkpt>
      <trkpt lon="-87.95600267127156" lat="43.15916894003749">
        <ele>217.39999389648438</ele>
        <time>2014-02-19T13:37:06.000Z</time>
      </trkpt>
      <trkpt lon="-87.95586973428726" lat="43.1591631565243">
        <ele>217.39999389648438</ele>
        <time>2014-02-19T13:37:12.000Z</time>
      </trkpt>
      <trkpt lon="-87.95574584975839" lat="43.15916064195335">
        <ele>217.0</ele>
        <time>2014-02-19T13:37:18.000Z</time>
      </trkpt>
      <trkpt lon="-87.95563604682684" lat="43.1591615639627">
        <ele>216.39999389648438</ele>
        <time>2014-02-19T13:37:24.000Z</time>
      </trkpt>
      <trkpt lon="-87.95552825555205" lat="43.159157959744334">
        <ele>215.39999389648438</ele>
        <time>2014-02-19T13:37:30.000Z</time>
      </trkpt>
      <trkpt lon="-87.95544896274805" lat="43.15916106104851">
        <ele>216.0</ele>
        <time>2014-02-19T13:37:35.000Z</time>
      </trkpt>
      <trkpt lon="-87.95536858029664" lat="43.159166257828474">
        <ele>216.0</ele>
        <time>2014-02-19T13:37:40.000Z</time>
      </trkpt>
      <trkpt lon="-87.95531619340181" lat="43.15917246043682">
        <ele>216.0</ele>
        <time>2014-02-19T13:37:45.000Z</time>
      </trkpt>
      <trkpt lon="-87.95530043542385" lat="43.15917824395001">
        <ele>216.39999389648438</ele>
        <time>2014-02-19T13:37:47.000Z</time>
      </trkpt>
      <trkpt lon="-87.95525215566158" lat="43.1592030543834">
        <ele>216.39999389648438</ele>
        <time>2014-02-19T13:37:54.000Z</time>
      </trkpt>
      <trkpt lon="-87.95515115372837" lat="43.15928486175835">
        <ele>215.0</ele>
        <time>2014-02-19T13:38:00.000Z</time>
      </trkpt>
      <trkpt lon="-87.95510195195675" lat="43.15930958837271">
        <ele>214.60000610351562</ele>
        <time>2014-02-19T13:38:03.000Z</time>
      </trkpt>
      <trkpt lon="-87.95502098277211" lat="43.15932685509324">
        <ele>215.0</ele>
        <time>2014-02-19T13:38:09.000Z</time>
      </trkpt>
      <trkpt lon="-87.95491696335375" lat="43.159324675798416">
        <ele>215.0</ele>
        <time>2014-02-19T13:38:17.000Z</time>
      </trkpt>
      <trkpt lon="-87.95482057146728" lat="43.15930028446019">
        <ele>215.0</ele>
        <time>2014-02-19T13:38:24.000Z</time>
      </trkpt>
      <trkpt lon="-87.95475267805159" lat="43.1592960935086">
        <ele>216.0</ele>
        <time>2014-02-19T13:38:30.000Z</time>
      </trkpt>
      <trkpt lon="-87.95471705496311" lat="43.15927488729358">
        <ele>216.39999389648438</ele>
        <time>2014-02-19T13:38:35.000Z</time>
      </trkpt>
      <trkpt lon="-87.954674474895" lat="43.15924529917538">
        <ele>216.39999389648438</ele>
        <time>2014-02-19T13:38:39.000Z</time>
      </trkpt>
      <trkpt lon="-87.9546625725925" lat="43.159242952242494">
        <ele>217.0</ele>
        <time>2014-02-19T13:38:45.000Z</time>
      </trkpt>
      <trkpt lon="-87.95464849099517" lat="43.15923733636737">
        <ele>217.0</ele>
        <time>2014-02-19T13:38:47.000Z</time>
      </trkpt>
      <trkpt lon="-87.95450868085027" lat="43.159159887582064">
        <ele>216.39999389648438</ele>
        <time>2014-02-19T13:38:56.000Z</time>
      </trkpt>
      <trkpt lon="-87.95430877245963" lat="43.15903466194868">
        <ele>215.0</ele>
        <time>2014-02-19T13:39:02.000Z</time>
      </trkpt>
      <trkpt lon="-87.95415085740387" lat="43.15889795310795">
        <ele>214.60000610351562</ele>
        <time>2014-02-19T13:39:08.000Z</time>
      </trkpt>
      <trkpt lon="-87.95409293845296" lat="43.15883098170161">
        <ele>214.0</ele>
        <time>2014-02-19T13:39:12.000Z</time>
      </trkpt>
      <trkpt lon="-87.95402663759887" lat="43.15874615684152">
        <ele>214.0</ele>
        <time>2014-02-19T13:39:18.000Z</time>
      </trkpt>
      <trkpt lon="-87.95396746136248" lat="43.15866895951331">
        <ele>214.0</ele>
        <time>2014-02-19T13:39:24.000Z</time>
      </trkpt>
      <trkpt lon="-87.95390266925097" lat="43.15862076357007">
        <ele>214.60000610351562</ele>
        <time>2014-02-19T13:39:30.000Z</time>
      </trkpt>
      <trkpt lon="-87.95381189323962" lat="43.15858857706189">
        <ele>216.39999389648438</ele>
        <time>2014-02-19T13:39:36.000Z</time>
      </trkpt>
      <trkpt lon="-87.95374659821391" lat="43.15856276080012">
        <ele>217.39999389648438</ele>
        <time>2014-02-19T13:39:40.000Z</time>
      </trkpt>
      <trkpt lon="-87.95373025350273" lat="43.158556558191776">
        <ele>217.8000030517578</ele>
        <time>2014-02-19T13:39:41.000Z</time>
      </trkpt>
      <trkpt lon="-87.95365255326033" lat="43.15851439721882">
        <ele>218.39999389648438</ele>
        <time>2014-02-19T13:39:46.000Z</time>
      </trkpt>
      <trkpt lon="-87.95355314388871" lat="43.15846435725689">
        <ele>219.39999389648438</ele>
        <time>2014-02-19T13:39:52.000Z</time>
      </trkpt>
      <trkpt lon="-87.95347896404564" lat="43.15842244774103">
        <ele>218.8000030517578</ele>
        <time>2014-02-19T13:39:57.000Z</time>
      </trkpt>
      <trkpt lon="-87.95339489355683" lat="43.15837156958878">
        <ele>218.8000030517578</ele>
        <time>2014-02-19T13:40:02.000Z</time>
      </trkpt>
      <trkpt lon="-87.95338349416852" lat="43.15836226567626">
        <ele>218.39999389648438</ele>
        <time>2014-02-19T13:40:03.000Z</time>
      </trkpt>
      <trkpt lon="-87.95334686525166" lat="43.15834365785122">
        <ele>218.39999389648438</ele>
        <time>2014-02-19T13:40:06.000Z</time>
      </trkpt>
      <trkpt lon="-87.95326606370509" lat="43.15827777609229">
        <ele>218.8000030517578</ele>
        <time>2014-02-19T13:40:12.000Z</time>
      </trkpt>
      <trkpt lon="-87.9531965777278" lat="43.15819655545056">
        <ele>218.39999389648438</ele>
        <time>2014-02-19T13:40:18.000Z</time>
      </trkpt>
      <trkpt lon="-87.95313354581594" lat="43.15812975168228">
        <ele>218.8000030517578</ele>
        <time>2014-02-19T13:40:24.000Z</time>
      </trkpt>
      <trkpt lon="-87.95308048836887" lat="43.1580769456923">
        <ele>219.8000030517578</ele>
        <time>2014-02-19T13:40:29.000Z</time>
      </trkpt>
      <trkpt lon="-87.95300429686904" lat="43.158025396987796">
        <ele>221.1999969482422</ele>
        <time>2014-02-19T13:40:35.000Z</time>
      </trkpt>
      <trkpt lon="-87.95295995660126" lat="43.15799295902252">
        <ele>221.1999969482422</ele>
        <time>2014-02-19T13:40:38.000Z</time>
      </trkpt>
      <trkpt lon="-87.952890554443" lat="43.15793973393738">
        <ele>220.8000030517578</ele>
        <time>2014-02-19T13:40:42.000Z</time>
      </trkpt>
      <trkpt lon="-87.9528490640223" lat="43.157916851341724">
        <ele>220.8000030517578</ele>
        <time>2014-02-19T13:40:44.000Z</time>
      </trkpt>
      <trkpt lon="-87.95275015756488" lat="43.157852394506335">
        <ele>221.1999969482422</ele>
        <time>2014-02-19T13:40:49.000Z</time>
      </trkpt>
      <trkpt lon="-87.95264823362231" lat="43.15777938812971">
        <ele>220.8000030517578</ele>
        <time>2014-02-19T13:40:54.000Z</time>
      </trkpt>
      <trkpt lon="-87.95258587226272" lat="43.157701939344406">
        <ele>220.8000030517578</ele>
        <time>2014-02-19T13:40:59.000Z</time>
      </trkpt>
      <trkpt lon="-87.95256868936121" lat="43.15763765014708">
        <ele>220.1999969482422</ele>
        <time>2014-02-19T13:41:04.000Z</time>
      </trkpt>
      <trkpt lon="-87.9525818489492" lat="43.15757319331169">
        <ele>220.1999969482422</ele>
        <time>2014-02-19T13:41:09.000Z</time>
      </trkpt>
      <trkpt lon="-87.95262853614986" lat="43.15749649889767">
        <ele>220.1999969482422</ele>
        <time>2014-02-19T13:41:15.000Z</time>
      </trkpt>
      <trkpt lon="-87.95267438516021" lat="43.15742793492973">
        <ele>220.8000030517578</ele>
        <time>2014-02-19T13:41:20.000Z</time>
      </trkpt>
      <trkpt lon="-87.95271067880094" lat="43.15736448392272">
        <ele>220.1999969482422</ele>
        <time>2014-02-19T13:41:25.000Z</time>
      </trkpt>
      <trkpt lon="-87.95274688862264" lat="43.157290974631906">
        <ele>220.1999969482422</ele>
        <time>2014-02-19T13:41:31.000Z</time>
      </trkpt>
      <trkpt lon="-87.95278795994818" lat="43.157206485047936">
        <ele>219.8000030517578</ele>
        <time>2014-02-19T13:41:37.000Z</time>
      </trkpt>
      <trkpt lon="-87.95283565297723" lat="43.15711378119886">
        <ele>218.8000030517578</ele>
        <time>2014-02-19T13:41:43.000Z</time>
      </trkpt>
      <trkpt lon="-87.952890554443" lat="43.15706784836948">
        <ele>218.8000030517578</ele>
        <time>2014-02-19T13:41:48.000Z</time>
      </trkpt>
      <trkpt lon="-87.9529098328203" lat="43.157037338241935">
        <ele>218.8000030517578</ele>
        <time>2014-02-19T13:41:52.000Z</time>
      </trkpt>
      <trkpt lon="-87.95293455943465" lat="43.156962655484676">
        <ele>220.1999969482422</ele>
        <time>2014-02-19T13:41:58.000Z</time>
      </trkpt>
      <trkpt lon="-87.9529542569071" lat="43.1569061614573">
        <ele>220.8000030517578</ele>
        <time>2014-02-19T13:42:02.000Z</time>
      </trkpt>
      <trkpt lon="-87.95297814533114" lat="43.15682066604495">
        <ele>221.8000030517578</ele>
        <time>2014-02-19T13:42:07.000Z</time>
      </trkpt>
      <trkpt lon="-87.9529700987041" lat="43.1567507609725">
        <ele>221.8000030517578</ele>
        <time>2014-02-19T13:42:12.000Z</time>
      </trkpt>
      <trkpt lon="-87.95291528105736" lat="43.15667934715748">
        <ele>222.60000610351562</ele>
        <time>2014-02-19T13:42:19.000Z</time>
      </trkpt>
      <trkpt lon="-87.9528717789799" lat="43.156643053516746">
        <ele>222.60000610351562</ele>
        <time>2014-02-19T13:42:23.000Z</time>
      </trkpt>
      <trkpt lon="-87.95281025581062" lat="43.15657926723361">
        <ele>223.1999969482422</ele>
        <time>2014-02-19T13:42:29.000Z</time>
      </trkpt>
      <trkpt lon="-87.95274378731847" lat="43.15651564858854">
        <ele>223.1999969482422</ele>
        <time>2014-02-19T13:42:34.000Z</time>
      </trkpt>
      <trkpt lon="-87.95269693247974" lat="43.15644716843963">
        <ele>223.1999969482422</ele>
        <time>2014-02-19T13:42:39.000Z</time>
      </trkpt>
      <trkpt lon="-87.95266306959093" lat="43.156401654705405">
        <ele>223.60000610351562</ele>
        <time>2014-02-19T13:42:44.000Z</time>
      </trkpt>
      <trkpt lon="-87.952631553635" lat="43.156360583379865">
        <ele>224.60000610351562</ele>
        <time>2014-02-19T13:42:49.000Z</time>
      </trkpt>
      <trkpt lon="-87.95257237739861" lat="43.15630475990474">
        <ele>225.60000610351562</ele>
        <time>2014-02-19T13:42:55.000Z</time>
      </trkpt>
      <trkpt lon="-87.952502053231" lat="43.1562636885792">
        <ele>226.0</ele>
        <time>2014-02-19T13:43:01.000Z</time>
      </trkpt>
      <trkpt lon="-87.95242007821798" lat="43.156239464879036">
        <ele>225.60000610351562</ele>
        <time>2014-02-19T13:43:07.000Z</time>
      </trkpt>
      <trkpt lon="-87.95228999108076" lat="43.156205685809255">
        <ele>224.1999969482422</ele>
        <time>2014-02-19T13:43:12.000Z</time>
      </trkpt>
      <trkpt lon="-87.95210097916424" lat="43.156159836798906">
        <ele>223.60000610351562</ele>
        <time>2014-02-19T13:43:17.000Z</time>
      </trkpt>
      <trkpt lon="-87.95193585567176" lat="43.15612035803497">
        <ele>222.1999969482422</ele>
        <time>2014-02-19T13:43:22.000Z</time>
      </trkpt>
      <trkpt lon="-87.95180895365775" lat="43.15608833916485">
        <ele>221.1999969482422</ele>
        <time>2014-02-19T13:43:26.000Z</time>
      </trkpt>
      <trkpt lon="-87.95166696421802" lat="43.15605313517153">
        <ele>220.1999969482422</ele>
        <time>2014-02-19T13:43:31.000Z</time>
      </trkpt>
      <trkpt lon="-87.95148993842304" lat="43.156004939228296">
        <ele>218.8000030517578</ele>
        <time>2014-02-19T13:43:37.000Z</time>
      </trkpt>
      <trkpt lon="-87.95141919516027" lat="43.15597987733781">
        <ele>218.8000030517578</ele>
        <time>2014-02-19T13:43:42.000Z</time>
      </trkpt>
      <trkpt lon="-87.9513328615576" lat="43.15594886429608">
        <ele>218.39999389648438</ele>
        <time>2014-02-19T13:43:47.000Z</time>
      </trkpt>
      <trkpt lon="-87.95124585740268" lat="43.155914498493075">
        <ele>217.8000030517578</ele>
        <time>2014-02-19T13:43:51.000Z</time>
      </trkpt>
      <trkpt lon="-87.95109699480236" lat="43.1558595970273">
        <ele>217.39999389648438</ele>
        <time>2014-02-19T13:43:57.000Z</time>
      </trkpt>
      <trkpt lon="-87.95101208612323" lat="43.15581894479692">
        <ele>217.0</ele>
        <time>2014-02-19T13:44:01.000Z</time>
      </trkpt>
      <trkpt lon="-87.95093539170921" lat="43.155771754682064">
        <ele>217.0</ele>
        <time>2014-02-19T13:44:06.000Z</time>
      </trkpt>
      <trkpt lon="-87.95085827820003" lat="43.15571425482631">
        <ele>217.0</ele>
        <time>2014-02-19T13:44:11.000Z</time>
      </trkpt>
      <trkpt lon="-87.95076096430421" lat="43.15564636141062">
        <ele>217.39999389648438</ele>
        <time>2014-02-19T13:44:17.000Z</time>
      </trkpt>
      <trkpt lon="-87.95068083330989" lat="43.15559816546738">
        <ele>217.39999389648438</ele>
        <time>2014-02-19T13:44:22.000Z</time>
      </trkpt>
      <trkpt lon="-87.95061117969453" lat="43.155548544600606">
        <ele>217.39999389648438</ele>
        <time>2014-02-19T13:44:27.000Z</time>
      </trkpt>
      <trkpt lon="-87.9505267739296" lat="43.15550286322832">
        <ele>217.8000030517578</ele>
        <time>2014-02-19T13:44:32.000Z</time>
      </trkpt>
      <trkpt lon="-87.95042275451124" lat="43.15545299090445">
        <ele>217.8000030517578</ele>
        <time>2014-02-19T13:44:37.000Z</time>
      </trkpt>
      <trkpt lon="-87.95034346170723" lat="43.15541275776923">
        <ele>217.8000030517578</ele>
        <time>2014-02-19T13:44:41.000Z</time>
      </trkpt>
      <trkpt lon="-87.9502730537206" lat="43.15538174472749">
        <ele>218.8000030517578</ele>
        <time>2014-02-19T13:44:45.000Z</time>
      </trkpt>
      <trkpt lon="-87.95020767487586" lat="43.15535316243768">
        <ele>218.8000030517578</ele>
        <time>2014-02-19T13:44:51.000Z</time>
      </trkpt>
      <trkpt lon="-87.95012326911092" lat="43.15533949993551">
        <ele>219.8000030517578</ele>
        <time>2014-02-19T13:44:57.000Z</time>
      </trkpt>
      <trkpt lon="-87.95001489110291" lat="43.15532634034753">
        <ele>219.39999389648438</ele>
        <time>2014-02-19T13:45:03.000Z</time>
      </trkpt>
      <trkpt lon="-87.94989603571594" lat="43.15532055683434">
        <ele>219.39999389648438</ele>
        <time>2014-02-19T13:45:10.000Z</time>
      </trkpt>
      <trkpt lon="-87.9498171620071" lat="43.1553172878921">
        <ele>219.39999389648438</ele>
        <time>2014-02-19T13:45:14.000Z</time>
      </trkpt>
      <trkpt lon="-87.94970744289458" lat="43.15531485714018">
        <ele>219.8000030517578</ele>
        <time>2014-02-19T13:45:19.000Z</time>
      </trkpt>
      <trkpt lon="-87.94960803352296" lat="43.15531016327441">
        <ele>220.1999969482422</ele>
        <time>2014-02-19T13:45:24.000Z</time>
      </trkpt>
      <trkpt lon="-87.94955899938941" lat="43.155306559056044">
        <ele>220.1999969482422</ele>
        <time>2014-02-19T13:45:27.000Z</time>
      </trkpt>
      <trkpt lon="-87.94953444041312" lat="43.155308151617646">
        <ele>221.1999969482422</ele>
        <time>2014-02-19T13:45:34.000Z</time>
      </trkpt>
      <trkpt lon="-87.94951289892197" lat="43.15533279441297">
        <ele>223.60000610351562</ele>
        <time>2014-02-19T13:45:56.000Z</time>
      </trkpt>
      <trkpt lon="-87.94950367882848" lat="43.15533916465938">
        <ele>223.60000610351562</ele>
        <time>2014-02-19T13:46:00.000Z</time>
      </trkpt>
      <trkpt lon="-87.94945254921913" lat="43.15541988238692">
        <ele>223.1999969482422</ele>
        <time>2014-02-19T13:46:06.000Z</time>
      </trkpt>
      <trkpt lon="-87.94942354783416" lat="43.15545458346605">
        <ele>223.1999969482422</ele>
        <time>2014-02-19T13:46:09.000Z</time>
      </trkpt>
      <trkpt lon="-87.94939479790628" lat="43.15553496591747">
        <ele>223.1999969482422</ele>
        <time>2014-02-19T13:46:16.000Z</time>
      </trkpt>
      <trkpt lon="-87.94939245097339" lat="43.15560168586671">
        <ele>222.60000610351562</ele>
        <time>2014-02-19T13:46:21.000Z</time>
      </trkpt>
      <trkpt lon="-87.94941734522581" lat="43.1556801404804">
        <ele>223.1999969482422</ele>
        <time>2014-02-19T13:46:27.000Z</time>
      </trkpt>
      <trkpt lon="-87.94942555949092" lat="43.15574769861996">
        <ele>223.1999969482422</ele>
        <time>2014-02-19T13:46:31.000Z</time>
      </trkpt>
      <trkpt lon="-87.9494302533567" lat="43.155806958675385">
        <ele>222.60000610351562</ele>
        <time>2014-02-19T13:46:35.000Z</time>
      </trkpt>
      <trkpt lon="-87.949438970536" lat="43.15589354373515">
        <ele>221.8000030517578</ele>
        <time>2014-02-19T13:46:41.000Z</time>
      </trkpt>
      <trkpt lon="-87.94944525696337" lat="43.15595665946603">
        <ele>222.60000610351562</ele>
        <time>2014-02-19T13:46:45.000Z</time>
      </trkpt>
      <trkpt lon="-87.94943595305085" lat="43.15601935610175">
        <ele>222.60000610351562</ele>
        <time>2014-02-19T13:46:50.000Z</time>
      </trkpt>
      <trkpt lon="-87.94943586923182" lat="43.1560633610934">
        <ele>222.60000610351562</ele>
        <time>2014-02-19T13:46:53.000Z</time>
      </trkpt>
      <trkpt lon="-87.94938968494534" lat="43.15613083541393">
        <ele>223.1999969482422</ele>
        <time>2014-02-19T13:46:59.000Z</time>
      </trkpt>
      <trkpt lon="-87.9493467696011" lat="43.1561809591949">
        <ele>223.1999969482422</ele>
        <time>2014-02-19T13:47:03.000Z</time>
      </trkpt>
      <trkpt lon="-87.94927678070962" lat="43.156262850388885">
        <ele>223.60000610351562</ele>
        <time>2014-02-19T13:47:10.000Z</time>
      </trkpt>
      <trkpt lon="-87.9492571670562" lat="43.15627517178655">
        <ele>224.1999969482422</ele>
        <time>2014-02-19T13:47:12.000Z</time>
      </trkpt>
      <trkpt lon="-87.949198493734" lat="43.15629294142127">
        <ele>224.60000610351562</ele>
        <time>2014-02-19T13:47:17.000Z</time>
      </trkpt>
      <trkpt lon="-87.94911216013134" lat="43.156332755461335">
        <ele>224.1999969482422</ele>
        <time>2014-02-19T13:47:21.000Z</time>
      </trkpt>
      <trkpt lon="-87.94904275797307" lat="43.156359577551484">
        <ele>224.1999969482422</ele>
        <time>2014-02-19T13:47:25.000Z</time>
      </trkpt>
      <trkpt lon="-87.94898525811732" lat="43.15639813430607">
        <ele>225.0</ele>
        <time>2014-02-19T13:47:28.000Z</time>
      </trkpt>
      <trkpt lon="-87.94889917597175" lat="43.15646384842694">
        <ele>225.0</ele>
        <time>2014-02-19T13:47:33.000Z</time>
      </trkpt>
      <trkpt lon="-87.9488805681467" lat="43.15647826530039">
        <ele>225.0</ele>
        <time>2014-02-19T13:47:34.000Z</time>
      </trkpt>
      <trkpt lon="-87.94877135194838" lat="43.1565747410059">
        <ele>226.0</ele>
        <time>2014-02-19T13:47:40.000Z</time>
      </trkpt>
      <trkpt lon="-87.94869918376207" lat="43.15663115121424">
        <ele>226.0</ele>
        <time>2014-02-19T13:47:45.000Z</time>
      </trkpt>
      <trkpt lon="-87.94868283905089" lat="43.156640538945794">
        <ele>226.0</ele>
        <time>2014-02-19T13:47:46.000Z</time>
      </trkpt>
      <trkpt lon="-87.94860689900815" lat="43.156694350764155">
        <ele>226.0</ele>
        <time>2014-02-19T13:47:50.000Z</time>
      </trkpt>
      <trkpt lon="-87.94849659316242" lat="43.15676358528435">
        <ele>225.0</ele>
        <time>2014-02-19T13:47:56.000Z</time>
      </trkpt>
      <trkpt lon="-87.94836885295808" lat="43.156807757914066">
        <ele>224.1999969482422</ele>
        <time>2014-02-19T13:48:02.000Z</time>
      </trkpt>
      <trkpt lon="-87.94828117825091" lat="43.15683097578585">
        <ele>223.60000610351562</ele>
        <time>2014-02-19T13:48:06.000Z</time>
      </trkpt>
      <trkpt lon="-87.94820968061686" lat="43.15685469657183">
        <ele>223.60000610351562</ele>
        <time>2014-02-19T13:48:10.000Z</time>
      </trkpt>
      <trkpt lon="-87.94812954962254" lat="43.15689845010638">
        <ele>223.60000610351562</ele>
        <time>2014-02-19T13:48:14.000Z</time>
      </trkpt>
      <trkpt lon="-87.94804044999182" lat="43.15692275762558">
        <ele>224.1999969482422</ele>
        <time>2014-02-19T13:48:18.000Z</time>
      </trkpt>
      <trkpt lon="-87.94802016578615" lat="43.156927367672324">
        <ele>224.1999969482422</ele>
        <time>2014-02-19T13:48:19.000Z</time>
      </trkpt>
      <trkpt lon="-87.94787155464292" lat="43.156964499503374">
        <ele>224.60000610351562</ele>
        <time>2014-02-19T13:48:26.000Z</time>
      </trkpt>
      <trkpt lon="-87.94780869036913" lat="43.156986543908715">
        <ele>225.0</ele>
        <time>2014-02-19T13:48:29.000Z</time>
      </trkpt>
      <trkpt lon="-87.9477219376713" lat="43.157026944682">
        <ele>225.0</ele>
        <time>2014-02-19T13:48:33.000Z</time>
      </trkpt>
      <trkpt lon="-87.9476254619658" lat="43.157050078734756">
        <ele>223.60000610351562</ele>
        <time>2014-02-19T13:48:38.000Z</time>
      </trkpt>
      <trkpt lon="-87.94754373840988" lat="43.157072039321065">
        <ele>223.1999969482422</ele>
        <time>2014-02-19T13:48:42.000Z</time>
      </trkpt>
      <trkpt lon="-87.94752546586096" lat="43.15707916393876">
        <ele>223.1999969482422</ele>
        <time>2014-02-19T13:48:43.000Z</time>
      </trkpt>
      <trkpt lon="-87.94749026186764" lat="43.15710246562958">
        <ele>223.60000610351562</ele>
        <time>2014-02-19T13:48:45.000Z</time>
      </trkpt>
      <trkpt lon="-87.94735078699887" lat="43.15715686418116">
        <ele>224.1999969482422</ele>
        <time>2014-02-19T13:48:52.000Z</time>
      </trkpt>
      <trkpt lon="-87.94730535708368" lat="43.157167341560125">
        <ele>224.60000610351562</ele>
        <time>2014-02-19T13:48:54.000Z</time>
      </trkpt>
      <trkpt lon="-87.9471243917942" lat="43.15721788443625">
        <ele>224.1999969482422</ele>
        <time>2014-02-19T13:49:02.000Z</time>
      </trkpt>
      <trkpt lon="-87.94704459607601" lat="43.15725065767765">
        <ele>224.1999969482422</ele>
        <time>2014-02-19T13:49:06.000Z</time>
      </trkpt>
      <trkpt lon="-87.94696379452944" lat="43.15730748698115">
        <ele>222.60000610351562</ele>
        <time>2014-02-19T13:49:11.000Z</time>
      </trkpt>
      <trkpt lon="-87.94692414812744" lat="43.1573654897511">
        <ele>221.8000030517578</ele>
        <time>2014-02-19T13:49:15.000Z</time>
      </trkpt>
      <trkpt lon="-87.94691207818687" lat="43.1574431899935">
        <ele>220.8000030517578</ele>
        <time>2014-02-19T13:49:20.000Z</time>
      </trkpt>
      <trkpt lon="-87.94693429023027" lat="43.157503455877304">
        <ele>220.8000030517578</ele>
        <time>2014-02-19T13:49:24.000Z</time>
      </trkpt>
      <trkpt lon="-87.9469779599458" lat="43.157589873299">
        <ele>220.1999969482422</ele>
        <time>2014-02-19T13:49:29.000Z</time>
      </trkpt>
      <trkpt lon="-87.94700905680656" lat="43.15765868872404">
        <ele>219.8000030517578</ele>
        <time>2014-02-19T13:49:33.000Z</time>
      </trkpt>
      <trkpt lon="-87.94703755527735" lat="43.15772213973105">
        <ele>218.8000030517578</ele>
        <time>2014-02-19T13:49:37.000Z</time>
      </trkpt>
      <trkpt lon="-87.947081560269" lat="43.15780327655375">
        <ele>218.39999389648438</ele>
        <time>2014-02-19T13:49:42.000Z</time>
      </trkpt>
      <trkpt lon="-87.94713025912642" lat="43.157876366749406">
        <ele>217.39999389648438</ele>
        <time>2014-02-19T13:49:47.000Z</time>
      </trkpt>
      <trkpt lon="-87.947189938277" lat="43.15795733593404">
        <ele>217.0</ele>
        <time>2014-02-19T13:49:53.000Z</time>
      </trkpt>
      <trkpt lon="-87.94722748920321" lat="43.15801575779915">
        <ele>216.39999389648438</ele>
        <time>2014-02-19T13:49:57.000Z</time>
      </trkpt>
      <trkpt lon="-87.94726805761456" lat="43.15807543694973">
        <ele>216.39999389648438</ele>
        <time>2014-02-19T13:50:01.000Z</time>
      </trkpt>
      <trkpt lon="-87.94731684029102" lat="43.158142156898975">
        <ele>216.0</ele>
        <time>2014-02-19T13:50:06.000Z</time>
      </trkpt>
      <trkpt lon="-87.94736545532942" lat="43.15820099785924">
        <ele>216.0</ele>
        <time>2014-02-19T13:50:10.000Z</time>
      </trkpt>
      <trkpt lon="-87.94741834513843" lat="43.158260844647884">
        <ele>216.0</ele>
        <time>2014-02-19T13:50:14.000Z</time>
      </trkpt>
      <trkpt lon="-87.9474766831845" lat="43.15833636559546">
        <ele>215.0</ele>
        <time>2014-02-19T13:50:19.000Z</time>
      </trkpt>
      <trkpt lon="-87.94748799875379" lat="43.15835044719279">
        <ele>215.0</ele>
        <time>2014-02-19T13:50:20.000Z</time>
      </trkpt>
      <trkpt lon="-87.94748799875379" lat="43.15835044719279">
        <ele>215.0</ele>
        <time>2014-02-19T13:50:20.000Z</time>
      </trkpt>
      <trkpt lon="-87.94753896072507" lat="43.15841959789395">
        <ele>214.60000610351562</ele>
        <time>2014-02-19T13:50:25.000Z</time>
      </trkpt>
      <trkpt lon="-87.94758958742023" lat="43.15848204307258">
        <ele>214.0</ele>
        <time>2014-02-19T13:50:29.000Z</time>
      </trkpt>
      <trkpt lon="-87.94764096848667" lat="43.15854515880346">
        <ele>214.0</ele>
        <time>2014-02-19T13:50:33.000Z</time>
      </trkpt>
      <trkpt lon="-87.94770006090403" lat="43.15862168557942">
        <ele>214.0</ele>
        <time>2014-02-19T13:50:38.000Z</time>
      </trkpt>
      <trkpt lon="-87.9477459937334" lat="43.15867826342583">
        <ele>214.0</ele>
        <time>2014-02-19T13:50:42.000Z</time>
      </trkpt>
      <trkpt lon="-87.94779016636312" lat="43.15872176550329">
        <ele>214.0</ele>
        <time>2014-02-19T13:50:45.000Z</time>
      </trkpt>
      <trkpt lon="-87.94783526100218" lat="43.15876945853233">
        <ele>214.0</ele>
        <time>2014-02-19T13:50:48.000Z</time>
      </trkpt>
      <trkpt lon="-87.94787557795644" lat="43.15880944021046">
        <ele>213.60000610351562</ele>
        <time>2014-02-19T13:50:51.000Z</time>
      </trkpt>
      <trkpt lon="-87.9479293897748" lat="43.1588642578572">
        <ele>213.60000610351562</ele>
        <time>2014-02-19T13:50:55.000Z</time>
      </trkpt>
      <trkpt lon="-87.94798403978348" lat="43.15891915932298">
        <ele>213.60000610351562</ele>
        <time>2014-02-19T13:50:59.000Z</time>
      </trkpt>
      <trkpt lon="-87.94806878082454" lat="43.15900725312531">
        <ele>213.0</ele>
        <time>2014-02-19T13:51:06.000Z</time>
      </trkpt>
      <trkpt lon="-87.94812334701419" lat="43.15906475298107">
        <ele>212.60000610351562</ele>
        <time>2014-02-19T13:51:10.000Z</time>
      </trkpt>
      <trkpt lon="-87.94816349633038" lat="43.15910356119275">
        <ele>212.60000610351562</ele>
        <time>2014-02-19T13:51:13.000Z</time>
      </trkpt>
      <trkpt lon="-87.94820909388363" lat="43.15915234386921">
        <ele>212.60000610351562</ele>
        <time>2014-02-19T13:51:17.000Z</time>
      </trkpt>
      <trkpt lon="-87.94826759956777" lat="43.15921135246754">
        <ele>212.60000610351562</ele>
        <time>2014-02-19T13:51:22.000Z</time>
      </trkpt>
      <trkpt lon="-87.9483199864626" lat="43.15926608629525">
        <ele>212.1999969482422</ele>
        <time>2014-02-19T13:51:27.000Z</time>
      </trkpt>
      <trkpt lon="-87.94839114882052" lat="43.15933473408222">
        <ele>211.60000610351562</ele>
        <time>2014-02-19T13:51:33.000Z</time>
      </trkpt>
      <trkpt lon="-87.94848695397377" lat="43.15942609682679">
        <ele>211.1999969482422</ele>
        <time>2014-02-19T13:51:41.000Z</time>
      </trkpt>
      <trkpt lon="-87.9485702700913" lat="43.159505389630795">
        <ele>210.60000610351562</ele>
        <time>2014-02-19T13:51:48.000Z</time>
      </trkpt>
      <trkpt lon="-87.94862743467093" lat="43.159563979133964">
        <ele>211.1999969482422</ele>
        <time>2014-02-19T13:51:54.000Z</time>
      </trkpt>
      <trkpt lon="-87.94868426397443" lat="43.15962298773229">
        <ele>210.60000610351562</ele>
        <time>2014-02-19T13:52:00.000Z</time>
      </trkpt>
      <trkpt lon="-87.94873237609863" lat="43.15966967493296">
        <ele>210.60000610351562</ele>
        <time>2014-02-19T13:52:05.000Z</time>
      </trkpt>
      <trkpt lon="-87.94877453707159" lat="43.15971133299172">
        <ele>210.60000610351562</ele>
        <time>2014-02-19T13:52:09.000Z</time>
      </trkpt>
      <trkpt lon="-87.94884159229696" lat="43.15978266298771">
        <ele>210.60000610351562</ele>
        <time>2014-02-19T13:52:15.000Z</time>
      </trkpt>
      <trkpt lon="-87.94890688732266" lat="43.159855334088206">
        <ele>211.1999969482422</ele>
        <time>2014-02-19T13:52:21.000Z</time>
      </trkpt>
      <trkpt lon="-87.9489743616432" lat="43.1599335372448">
        <ele>212.1999969482422</ele>
        <time>2014-02-19T13:52:27.000Z</time>
      </trkpt>
      <trkpt lon="-87.94904829002917" lat="43.16001433879137">
        <ele>212.1999969482422</ele>
        <time>2014-02-19T13:52:33.000Z</time>
      </trkpt>
      <trkpt lon="-87.94910805299878" lat="43.1600783765316">
        <ele>212.1999969482422</ele>
        <time>2014-02-19T13:52:38.000Z</time>
      </trkpt>
      <trkpt lon="-87.94916965998709" lat="43.16014333628118">
        <ele>212.1999969482422</ele>
        <time>2014-02-19T13:52:43.000Z</time>
      </trkpt>
      <trkpt lon="-87.94924836605787" lat="43.16021575592458">
        <ele>211.60000610351562</ele>
        <time>2014-02-19T13:52:49.000Z</time>
      </trkpt>
      <trkpt lon="-87.94931743294" lat="43.16028096713126">
        <ele>211.60000610351562</ele>
        <time>2014-02-19T13:52:54.000Z</time>
      </trkpt>
      <trkpt lon="-87.9493681434542" lat="43.16033226437867">
        <ele>211.1999969482422</ele>
        <time>2014-02-19T13:52:58.000Z</time>
      </trkpt>
      <trkpt lon="-87.94942765496671" lat="43.160392781719565">
        <ele>211.60000610351562</ele>
        <time>2014-02-19T13:53:03.000Z</time>
      </trkpt>
      <trkpt lon="-87.94949655421078" lat="43.16046075895429">
        <ele>213.0</ele>
        <time>2014-02-19T13:53:09.000Z</time>
      </trkpt>
      <trkpt lon="-87.94956377707422" lat="43.16053376533091">
        <ele>213.60000610351562</ele>
        <time>2014-02-19T13:53:15.000Z</time>
      </trkpt>
      <trkpt lon="-87.94964198023081" lat="43.160629738122225">
        <ele>213.60000610351562</ele>
        <time>2014-02-19T13:53:22.000Z</time>
      </trkpt>
      <trkpt lon="-87.94966025277972" lat="43.16067298874259">
        <ele>214.0</ele>
        <time>2014-02-19T13:53:25.000Z</time>
      </trkpt>
      <trkpt lon="-87.94967098161578" lat="43.16073216497898">
        <ele>215.39999389648438</ele>
        <time>2014-02-19T13:53:30.000Z</time>
      </trkpt>
      <trkpt lon="-87.9496910981834" lat="43.160794358700514">
        <ele>215.39999389648438</ele>
        <time>2014-02-19T13:53:35.000Z</time>
      </trkpt>
      <trkpt lon="-87.94968087226152" lat="43.16080525517464">
        <ele>217.0</ele>
        <time>2014-02-19T13:53:44.000Z</time>
      </trkpt>
      <trkpt lon="-87.94968975707889" lat="43.160820342600346">
        <ele>217.8000030517578</ele>
        <time>2014-02-19T13:53:48.000Z</time>
      </trkpt>
      <trkpt lon="-87.9497130587697" lat="43.1608416326344">
        <ele>217.8000030517578</ele>
        <time>2014-02-19T13:53:51.000Z</time>
      </trkpt>
      <trkpt lon="-87.94974826276302" lat="43.16091153770685">
        <ele>218.39999389648438</ele>
        <time>2014-02-19T13:53:57.000Z</time>
      </trkpt>
      <trkpt lon="-87.9497891664505" lat="43.16099694930017">
        <ele>217.8000030517578</ele>
        <time>2014-02-19T13:54:03.000Z</time>
      </trkpt>
      <trkpt lon="-87.94983585365117" lat="43.16106794402003">
        <ele>217.8000030517578</ele>
        <time>2014-02-19T13:54:08.000Z</time>
      </trkpt>
      <trkpt lon="-87.9499321617186" lat="43.16115184687078">
        <ele>217.8000030517578</ele>
        <time>2014-02-19T13:54:15.000Z</time>
      </trkpt>
      <trkpt lon="-87.9500502627343" lat="43.16121043637395">
        <ele>217.39999389648438</ele>
        <time>2014-02-19T13:54:21.000Z</time>
      </trkpt>
      <trkpt lon="-87.95016258023679" lat="43.161251256242394">
        <ele>217.39999389648438</ele>
        <time>2014-02-19T13:54:26.000Z</time>
      </trkpt>
      <trkpt lon="-87.9502434656024" lat="43.161296686157584">
        <ele>217.8000030517578</ele>
        <time>2014-02-19T13:54:30.000Z</time>
      </trkpt>
      <trkpt lon="-87.95038444921374" lat="43.16136893816292">
        <ele>218.8000030517578</ele>
        <time>2014-02-19T13:54:37.000Z</time>
      </trkpt>
      <trkpt lon="-87.95043046586215" lat="43.16139458678663">
        <ele>218.8000030517578</ele>
        <time>2014-02-19T13:54:40.000Z</time>
      </trkpt>
      <trkpt lon="-87.95053054578602" lat="43.16144999116659">
        <ele>219.39999389648438</ele>
        <time>2014-02-19T13:54:46.000Z</time>
      </trkpt>
      <trkpt lon="-87.95060564763844" lat="43.16150179132819">
        <ele>219.39999389648438</ele>
        <time>2014-02-19T13:54:51.000Z</time>
      </trkpt>
      <trkpt lon="-87.95068468898535" lat="43.1615480594337">
        <ele>219.39999389648438</ele>
        <time>2014-02-19T13:54:56.000Z</time>
      </trkpt>
      <trkpt lon="-87.95077655464411" lat="43.16159105859697">
        <ele>219.8000030517578</ele>
        <time>2014-02-19T13:55:02.000Z</time>
      </trkpt>
      <trkpt lon="-87.95086774975061" lat="43.16162617877126">
        <ele>219.8000030517578</ele>
        <time>2014-02-19T13:55:07.000Z</time>
      </trkpt>
      <trkpt lon="-87.9509723559022" lat="43.16165903583169">
        <ele>219.8000030517578</ele>
        <time>2014-02-19T13:55:12.000Z</time>
      </trkpt>
      <trkpt lon="-87.95107218436897" lat="43.16168527118862">
        <ele>219.8000030517578</ele>
        <time>2014-02-19T13:55:18.000Z</time>
      </trkpt>
      <trkpt lon="-87.95115374028683" lat="43.16170605830848">
        <ele>220.1999969482422</ele>
        <time>2014-02-19T13:55:22.000Z</time>
      </trkpt>
      <trkpt lon="-87.95124929398298" lat="43.16172684542835">
        <ele>220.8000030517578</ele>
        <time>2014-02-19T13:55:26.000Z</time>
      </trkpt>
      <trkpt lon="-87.95136043801904" lat="43.161753164604306">
        <ele>219.8000030517578</ele>
        <time>2014-02-19T13:55:31.000Z</time>
      </trkpt>
      <trkpt lon="-87.95145976357162" lat="43.16177738830447">
        <ele>219.8000030517578</ele>
        <time>2014-02-19T13:55:35.000Z</time>
      </trkpt>
      <trkpt lon="-87.95155447907746" lat="43.16180856898427">
        <ele>219.39999389648438</ele>
        <time>2014-02-19T13:55:39.000Z</time>
      </trkpt>
      <trkpt lon="-87.95165087096393" lat="43.16183698363602">
        <ele>219.39999389648438</ele>
        <time>2014-02-19T13:55:43.000Z</time>
      </trkpt>
      <trkpt lon="-87.95175815932453" lat="43.161866990849376">
        <ele>218.8000030517578</ele>
        <time>2014-02-19T13:55:48.000Z</time>
      </trkpt>
      <trkpt lon="-87.95183259062469" lat="43.16188869997859">
        <ele>218.39999389648438</ele>
        <time>2014-02-19T13:55:52.000Z</time>
      </trkpt>
      <trkpt lon="-87.95191766694188" lat="43.16191116347909">
        <ele>217.39999389648438</ele>
        <time>2014-02-19T13:55:56.000Z</time>
      </trkpt>
      <trkpt lon="-87.95200215652585" lat="43.16193035803735">
        <ele>217.8000030517578</ele>
        <time>2014-02-19T13:56:00.000Z</time>
      </trkpt>
      <trkpt lon="-87.95211397111416" lat="43.16195257008076">
        <ele>217.8000030517578</ele>
        <time>2014-02-19T13:56:06.000Z</time>
      </trkpt>
      <trkpt lon="-87.95220633968711" lat="43.1619571801275">
        <ele>218.39999389648438</ele>
        <time>2014-02-19T13:56:11.000Z</time>
      </trkpt>
      <trkpt lon="-87.95227255672216" lat="43.161961790174246">
        <ele>218.39999389648438</ele>
        <time>2014-02-19T13:56:15.000Z</time>
      </trkpt>
      <trkpt lon="-87.95230449177325" lat="43.161961790174246">
        <ele>218.39999389648438</ele>
        <time>2014-02-19T13:56:17.000Z</time>
      </trkpt>
      <trkpt lon="-87.95239535160363" lat="43.16195139661431">
        <ele>218.39999389648438</ele>
        <time>2014-02-19T13:56:23.000Z</time>
      </trkpt>
      <trkpt lon="-87.95250138267875" lat="43.16193035803735">
        <ele>218.39999389648438</ele>
        <time>2014-02-19T13:56:29.000Z</time>
      </trkpt>
      <trkpt lon="-87.95258545316756" lat="43.161906469613314">
        <ele>218.8000030517578</ele>
        <time>2014-02-19T13:56:34.000Z</time>
      </trkpt>
      <trkpt lon="-87.95267698355019" lat="43.16188425756991">
        <ele>219.39999389648438</ele>
        <time>2014-02-19T13:56:40.000Z</time>
      </trkpt>
      <trkpt lon="-87.95271914452314" lat="43.16187453456223">
        <ele>219.8000030517578</ele>
        <time>2014-02-19T13:56:43.000Z</time>
      </trkpt>
      <trkpt lon="-87.95277446508408" lat="43.161862548440695">
        <ele>219.8000030517578</ele>
        <time>2014-02-19T13:56:48.000Z</time>
      </trkpt>
      <trkpt lon="-87.95281503349543" lat="43.16184318624437">
        <ele>220.8000030517578</ele>
        <time>2014-02-19T13:56:52.000Z</time>
      </trkpt>
      <trkpt lon="-87.95283129438758" lat="43.16184016875923">
        <ele>220.8000030517578</ele>
        <time>2014-02-19T13:56:53.000Z</time>
      </trkpt>
      <trkpt lon="-87.95290413312614" lat="43.16182315349579">
        <ele>221.1999969482422</ele>
        <time>2014-02-19T13:56:58.000Z</time>
      </trkpt>
      <trkpt lon="-87.9529441986233" lat="43.16180798225105">
        <ele>221.1999969482422</ele>
        <time>2014-02-19T13:57:04.000Z</time>
      </trkpt>
      <trkpt lon="-87.95294486917555" lat="43.161803958937526">
        <ele>221.1999969482422</ele>
        <time>2014-02-19T13:57:05.000Z</time>
      </trkpt>
      <trkpt lon="-87.95298744924366" lat="43.16171955317259">
        <ele>220.1999969482422</ele>
        <time>2014-02-19T13:57:14.000Z</time>
      </trkpt>
      <trkpt lon="-87.9530612938106" lat="43.16167579963803">
        <ele>220.1999969482422</ele>
        <time>2014-02-19T13:57:19.000Z</time>
      </trkpt>
      <trkpt lon="-87.95309825800359" lat="43.161650486290455">
        <ele>220.1999969482422</ele>
        <time>2014-02-19T13:57:22.000Z</time>
      </trkpt>
      <trkpt lon="-87.95312943868339" lat="43.161624083295465">
        <ele>220.1999969482422</ele>
        <time>2014-02-19T13:57:26.000Z</time>
      </trkpt>
      <trkpt lon="-87.95318995602429" lat="43.161565996706486">
        <ele>219.8000030517578</ele>
        <time>2014-02-19T13:57:32.000Z</time>
      </trkpt>
      <trkpt lon="-87.95324066653848" lat="43.16150774247944">
        <ele>219.8000030517578</ele>
        <time>2014-02-19T13:57:37.000Z</time>
      </trkpt>
      <trkpt lon="-87.95328316278756" lat="43.16144404001534">
        <ele>219.8000030517578</ele>
        <time>2014-02-19T13:57:42.000Z</time>
      </trkpt>
      <trkpt lon="-87.95331627130508" lat="43.161367597058415">
        <ele>220.1999969482422</ele>
        <time>2014-02-19T13:57:49.000Z</time>
      </trkpt>
      <trkpt lon="-87.95332306064665" lat="43.16131764091551">
        <ele>220.1999969482422</ele>
        <time>2014-02-19T13:57:53.000Z</time>
      </trkpt>
      <trkpt lon="-87.95333689078689" lat="43.16126039251685">
        <ele>219.8000030517578</ele>
        <time>2014-02-19T13:57:57.000Z</time>
      </trkpt>
      <trkpt lon="-87.95334368012846" lat="43.16116886213422">
        <ele>220.8000030517578</ele>
        <time>2014-02-19T13:58:03.000Z</time>
      </trkpt>
      <trkpt lon="-87.95334896072745" lat="43.161105159670115">
        <ele>221.8000030517578</ele>
        <time>2014-02-19T13:58:09.000Z</time>
      </trkpt>
      <trkpt lon="-87.95335876755416" lat="43.16104497760534">
        <ele>222.60000610351562</ele>
        <time>2014-02-19T13:58:15.000Z</time>
      </trkpt>
      <trkpt lon="-87.95337284915149" lat="43.16095009446144">
        <ele>223.60000610351562</ele>
        <time>2014-02-19T13:58:22.000Z</time>
      </trkpt>
      <trkpt lon="-87.95337276533246" lat="43.160865688696504">
        <ele>224.1999969482422</ele>
        <time>2014-02-19T13:58:28.000Z</time>
      </trkpt>
      <trkpt lon="-87.95337226241827" lat="43.160811457782984">
        <ele>224.1999969482422</ele>
        <time>2014-02-19T13:58:32.000Z</time>
      </trkpt>
      <trkpt lon="-87.95337226241827" lat="43.160751443356276">
        <ele>224.1999969482422</ele>
        <time>2014-02-19T13:58:37.000Z</time>
      </trkpt>
      <trkpt lon="-87.9533778782934" lat="43.16070416942239">
        <ele>224.1999969482422</ele>
        <time>2014-02-19T13:58:41.000Z</time>
      </trkpt>
      <trkpt lon="-87.95338885858655" lat="43.16067458130419">
        <ele>223.60000610351562</ele>
        <time>2014-02-19T13:58:47.000Z</time>
      </trkpt>
      <trkpt lon="-87.95337326824665" lat="43.16064943559468">
        <ele>223.1999969482422</ele>
        <time>2014-02-19T13:58:54.000Z</time>
      </trkpt>
      <trkpt lon="-87.95336748473346" lat="43.160622864961624">
        <ele>222.60000610351562</ele>
        <time>2014-02-19T13:59:00.000Z</time>
      </trkpt>
      <trkpt lon="-87.95337896794081" lat="43.16059595905244">
        <ele>222.1999969482422</ele>
        <time>2014-02-19T13:59:03.000Z</time>
      </trkpt>
      <trkpt lon="-87.95341324992478" lat="43.16054239869118">
        <ele>222.1999969482422</ele>
        <time>2014-02-19T13:59:08.000Z</time>
      </trkpt>
      <trkpt lon="-87.95347485691309" lat="43.16046738065779">
        <ele>221.1999969482422</ele>
        <time>2014-02-19T13:59:14.000Z</time>
      </trkpt>
      <trkpt lon="-87.95354526489973" lat="43.16038364544511">
        <ele>220.1999969482422</ele>
        <time>2014-02-19T13:59:20.000Z</time>
      </trkpt>
      <trkpt lon="-87.95360796153545" lat="43.1603151652962">
        <ele>219.39999389648438</ele>
        <time>2014-02-19T13:59:25.000Z</time>
      </trkpt>
      <trkpt lon="-87.95366588048637" lat="43.160254061222076">
        <ele>218.8000030517578</ele>
        <time>2014-02-19T13:59:30.000Z</time>
      </trkpt>
      <trkpt lon="-87.95372296124697" lat="43.160193879157305">
        <ele>218.39999389648438</ele>
        <time>2014-02-19T13:59:35.000Z</time>
      </trkpt>
      <trkpt lon="-87.95378054492176" lat="43.16014098934829">
        <ele>217.8000030517578</ele>
        <time>2014-02-19T13:59:40.000Z</time>
      </trkpt>
      <trkpt lon="-87.95383125543594" lat="43.160091787576675">
        <ele>217.39999389648438</ele>
        <time>2014-02-19T13:59:45.000Z</time>
      </trkpt>
      <trkpt lon="-87.95389319770038" lat="43.1600281689316">
        <ele>217.0</ele>
        <time>2014-02-19T13:59:51.000Z</time>
      </trkpt>
      <trkpt lon="-87.95395027846098" lat="43.15997326746583">
        <ele>217.0</ele>
        <time>2014-02-19T13:59:57.000Z</time>
      </trkpt>
      <trkpt lon="-87.95397223904729" lat="43.159953067079186">
        <ele>216.0</ele>
        <time>2014-02-19T14:00:03.000Z</time>
      </trkpt>
      <trkpt lon="-87.9540150705725" lat="43.15991417504847">
        <ele>215.39999389648438</ele>
        <time>2014-02-19T14:00:08.000Z</time>
      </trkpt>
      <trkpt lon="-87.95407248660922" lat="43.15985156223178">
        <ele>215.0</ele>
        <time>2014-02-19T14:00:14.000Z</time>
      </trkpt>
      <trkpt lon="-87.95413803309202" lat="43.159779980778694">
        <ele>215.0</ele>
        <time>2014-02-19T14:00:21.000Z</time>
      </trkpt>
      <trkpt lon="-87.95418974943459" lat="43.15972759388387">
        <ele>215.0</ele>
        <time>2014-02-19T14:00:26.000Z</time>
      </trkpt>
      <trkpt lon="-87.95423333533108" lat="43.159686271101236">
        <ele>215.0</ele>
        <time>2014-02-19T14:00:30.000Z</time>
      </trkpt>
      <trkpt lon="-87.95428345911205" lat="43.15963187254965">
        <ele>215.0</ele>
        <time>2014-02-19T14:00:36.000Z</time>
      </trkpt>
      <trkpt lon="-87.95432419516146" lat="43.1595862749964">
        <ele>215.0</ele>
        <time>2014-02-19T14:00:42.000Z</time>
      </trkpt>
      <trkpt lon="-87.95436107553542" lat="43.159544449299574">
        <ele>215.0</ele>
        <time>2014-02-19T14:00:48.000Z</time>
      </trkpt>
      <trkpt lon="-87.95438094064593" lat="43.15952475182712">
        <ele>215.39999389648438</ele>
        <time>2014-02-19T14:00:52.000Z</time>
      </trkpt>
      <trkpt lon="-87.95440767891705" lat="43.15949248149991">
        <ele>215.39999389648438</ele>
        <time>2014-02-19T14:00:57.000Z</time>
      </trkpt>
      <trkpt lon="-87.95444246381521" lat="43.159452164545655">
        <ele>216.0</ele>
        <time>2014-02-19T14:01:03.000Z</time>
      </trkpt>
      <trkpt lon="-87.95445956289768" lat="43.1594308745116">
        <ele>216.0</ele>
        <time>2014-02-19T14:01:06.000Z</time>
      </trkpt>
      <trkpt lon="-87.95446945354342" lat="43.159416960552335">
        <ele>216.0</ele>
        <time>2014-02-19T14:01:08.000Z</time>
      </trkpt>
      <trkpt lon="-87.95451303943992" lat="43.1593703571707">
        <ele>216.39999389648438</ele>
        <time>2014-02-19T14:01:15.000Z</time>
      </trkpt>
      <trkpt lon="-87.95452854596078" lat="43.15935426391661">
        <ele>216.0</ele>
        <time>2014-02-19T14:01:19.000Z</time>
      </trkpt>
      <trkpt lon="-87.95455947518349" lat="43.15932249650359">
        <ele>216.0</ele>
        <time>2014-02-19T14:01:25.000Z</time>
      </trkpt>
      <trkpt lon="-87.95459384098649" lat="43.159296764060855">
        <ele>216.39999389648438</ele>
        <time>2014-02-19T14:01:30.000Z</time>
      </trkpt>
      <trkpt lon="-87.95463625341654" lat="43.15928385592997">
        <ele>216.39999389648438</ele>
        <time>2014-02-19T14:01:36.000Z</time>
      </trkpt>
      <trkpt lon="-87.95462485402822" lat="43.15926189534366">
        <ele>216.39999389648438</ele>
        <time>2014-02-19T14:01:42.000Z</time>
      </trkpt>
      <trkpt lon="-87.95454899780452" lat="43.159212693572044">
        <ele>216.39999389648438</ele>
        <time>2014-02-19T14:01:49.000Z</time>
      </trkpt>
      <trkpt lon="-87.95446987263858" lat="43.159161899238825">
        <ele>215.39999389648438</ele>
        <time>2014-02-19T14:01:55.000Z</time>
      </trkpt>
      <trkpt lon="-87.95431438833475" lat="43.15906835719943">
        <ele>214.0</ele>
        <time>2014-02-19T14:02:00.000Z</time>
      </trkpt>
      <trkpt lon="-87.95410073362291" lat="43.15888705663383">
        <ele>213.0</ele>
        <time>2014-02-19T14:02:07.000Z</time>
      </trkpt>
      <trkpt lon="-87.95403124764562" lat="43.15880198031664">
        <ele>213.0</ele>
        <time>2014-02-19T14:02:12.000Z</time>
      </trkpt>
      <trkpt lon="-87.95395606197417" lat="43.15869494341314">
        <ele>212.60000610351562</ele>
        <time>2014-02-19T14:02:19.000Z</time>
      </trkpt>
      <trkpt lon="-87.95392035506666" lat="43.15865144133568">
        <ele>212.60000610351562</ele>
        <time>2014-02-19T14:02:22.000Z</time>
      </trkpt>
      <trkpt lon="-87.95380837284029" lat="43.158592181280255">
        <ele>212.60000610351562</ele>
        <time>2014-02-19T14:02:29.000Z</time>
      </trkpt>
      <trkpt lon="-87.95372245833278" lat="43.15855974331498">
        <ele>213.60000610351562</ele>
        <time>2014-02-19T14:02:34.000Z</time>
      </trkpt>
      <trkpt lon="-87.95364048331976" lat="43.15851774998009">
        <ele>214.0</ele>
        <time>2014-02-19T14:02:39.000Z</time>
      </trkpt>
      <trkpt lon="-87.95357175171375" lat="43.15847994759679">
        <ele>214.0</ele>
        <time>2014-02-19T14:02:43.000Z</time>
      </trkpt>
      <trkpt lon="-87.95350268483162" lat="43.15844055265188">
        <ele>214.60000610351562</ele>
        <time>2014-02-19T14:02:47.000Z</time>
      </trkpt>
      <trkpt lon="-87.95343009755015" lat="43.15839696675539">
        <ele>214.60000610351562</ele>
        <time>2014-02-19T14:02:52.000Z</time>
      </trkpt>
      <trkpt lon="-87.95333848334849" lat="43.158348854631186">
        <ele>215.0</ele>
        <time>2014-02-19T14:02:57.000Z</time>
      </trkpt>
      <trkpt lon="-87.95328609645367" lat="43.158311638981104">
        <ele>214.60000610351562</ele>
        <time>2014-02-19T14:03:01.000Z</time>
      </trkpt>
      <trkpt lon="-87.9532219748944" lat="43.15824684686959">
        <ele>214.60000610351562</ele>
        <time>2014-02-19T14:03:06.000Z</time>
      </trkpt>
      <trkpt lon="-87.95316933654249" lat="43.15818004310131">
        <ele>215.0</ele>
        <time>2014-02-19T14:03:11.000Z</time>
      </trkpt>
      <trkpt lon="-87.95307663269341" lat="43.158093793317676">
        <ele>217.0</ele>
        <time>2014-02-19T14:03:20.000Z</time>
      </trkpt>
      <trkpt lon="-87.95301225967705" lat="43.1580354552716">
        <ele>217.8000030517578</ele>
        <time>2014-02-19T14:03:26.000Z</time>
      </trkpt>
      <trkpt lon="-87.95294336043298" lat="43.15798323601484">
        <ele>218.39999389648438</ele>
        <time>2014-02-19T14:03:32.000Z</time>
      </trkpt>
      <trkpt lon="-87.95291913673282" lat="43.15796437673271">
        <ele>218.39999389648438</ele>
        <time>2014-02-19T14:03:34.000Z</time>
      </trkpt>
      <trkpt lon="-87.9528321325779" lat="43.15790209919214">
        <ele>219.8000030517578</ele>
        <time>2014-02-19T14:03:40.000Z</time>
      </trkpt>
      <trkpt lon="-87.95277178287506" lat="43.15786245279014">
        <ele>220.8000030517578</ele>
        <time>2014-02-19T14:03:43.000Z</time>
      </trkpt>
      <trkpt lon="-87.95265963301063" lat="43.15779355354607">
        <ele>221.8000030517578</ele>
        <time>2014-02-19T14:03:48.000Z</time>
      </trkpt>
      <trkpt lon="-87.95257723890245" lat="43.15773236565292">
        <ele>221.1999969482422</ele>
        <time>2014-02-19T14:03:53.000Z</time>
      </trkpt>
      <trkpt lon="-87.95254865661263" lat="43.15767855383456">
        <ele>220.8000030517578</ele>
        <time>2014-02-19T14:03:57.000Z</time>
      </trkpt>
      <trkpt lon="-87.95254446566105" lat="43.157615354284644">
        <ele>220.1999969482422</ele>
        <time>2014-02-19T14:04:02.000Z</time>
      </trkpt>
      <trkpt lon="-87.95256525278091" lat="43.15755223855376">
        <ele>219.8000030517578</ele>
        <time>2014-02-19T14:04:07.000Z</time>
      </trkpt>
      <trkpt lon="-87.95261177234352" lat="43.157487446442246">
        <ele>219.8000030517578</ele>
        <time>2014-02-19T14:04:12.000Z</time>
      </trkpt>
      <trkpt lon="-87.95266047120094" lat="43.15741879865527">
        <ele>219.39999389648438</ele>
        <time>2014-02-19T14:04:17.000Z</time>
      </trkpt>
      <trkpt lon="-87.95270347036421" lat="43.157341768965125">
        <ele>219.39999389648438</ele>
        <time>2014-02-19T14:04:23.000Z</time>
      </trkpt>
      <trkpt lon="-87.95275485143065" lat="43.157246969640255">
        <ele>218.8000030517578</ele>
        <time>2014-02-19T14:04:30.000Z</time>
      </trkpt>
      <trkpt lon="-87.95280019752681" lat="43.15717086195946">
        <ele>218.39999389648438</ele>
        <time>2014-02-19T14:04:36.000Z</time>
      </trkpt>
      <trkpt lon="-87.95284965075552" lat="43.15708955749869">
        <ele>217.39999389648438</ele>
        <time>2014-02-19T14:04:42.000Z</time>
      </trkpt>
      <trkpt lon="-87.95286867767572" lat="43.15704295411706">
        <ele>217.0</ele>
        <time>2014-02-19T14:04:47.000Z</time>
      </trkpt>
      <trkpt lon="-87.95288753695786" lat="43.15697154030204">
        <ele>217.39999389648438</ele>
        <time>2014-02-19T14:04:54.000Z</time>
      </trkpt>
      <trkpt lon="-87.95289206318557" lat="43.15695787779987">
        <ele>217.39999389648438</ele>
        <time>2014-02-19T14:04:55.000Z</time>
      </trkpt>
      <trkpt lon="-87.95292416587472" lat="43.156893169507384">
        <ele>217.8000030517578</ele>
        <time>2014-02-19T14:05:00.000Z</time>
      </trkpt>
      <trkpt lon="-87.95295224525034" lat="43.15680306404829">
        <ele>218.39999389648438</ele>
        <time>2014-02-19T14:05:06.000Z</time>
      </trkpt>
      <trkpt lon="-87.95292626135051" lat="43.156701140105724">
        <ele>218.39999389648438</ele>
        <time>2014-02-19T14:05:14.000Z</time>
      </trkpt>
      <trkpt lon="-87.9528802447021" lat="43.15665495581925">
        <ele>218.39999389648438</ele>
        <time>2014-02-19T14:05:19.000Z</time>
      </trkpt>
      <trkpt lon="-87.9528215713799" lat="43.15659645013511">
        <ele>218.39999389648438</ele>
        <time>2014-02-19T14:05:24.000Z</time>
      </trkpt>
      <trkpt lon="-87.9527422785759" lat="43.156514558941126">
        <ele>218.39999389648438</ele>
        <time>2014-02-19T14:05:31.000Z</time>
      </trkpt>
      <trkpt lon="-87.95269818976521" lat="43.15644934773445">
        <ele>217.8000030517578</ele>
        <time>2014-02-19T14:05:36.000Z</time>
      </trkpt>
      <trkpt lon="-87.95266885310411" lat="43.15640819258988">
        <ele>218.8000030517578</ele>
        <time>2014-02-19T14:05:40.000Z</time>
      </trkpt>
      <trkpt lon="-87.95264965854585" lat="43.15638044849038">
        <ele>218.39999389648438</ele>
        <time>2014-02-19T14:05:44.000Z</time>
      </trkpt>
      <trkpt lon="-87.95260573737323" lat="43.15632747486234">
        <ele>218.39999389648438</ele>
        <time>2014-02-19T14:05:49.000Z</time>
      </trkpt>
      <trkpt lon="-87.95255309902132" lat="43.156282380223274">
        <ele>217.39999389648438</ele>
        <time>2014-02-19T14:05:54.000Z</time>
      </trkpt>
      <trkpt lon="-87.95247598551214" lat="43.156247260048985">
        <ele>217.8000030517578</ele>
        <time>2014-02-19T14:06:00.000Z</time>
      </trkpt>
      <trkpt lon="-87.95233525335789" lat="43.156213061884046">
        <ele>217.8000030517578</ele>
        <time>2014-02-19T14:06:07.000Z</time>
      </trkpt>
      <trkpt lon="-87.95211279764771" lat="43.15616067498922">
        <ele>217.39999389648438</ele>
        <time>2014-02-19T14:06:13.000Z</time>
      </trkpt>
      <trkpt lon="-87.95196955092251" lat="43.156127985566854">
        <ele>217.0</ele>
        <time>2014-02-19T14:06:17.000Z</time>
      </trkpt>
      <trkpt lon="-87.95185966417193" lat="43.15609806217253">
        <ele>216.0</ele>
        <time>2014-02-19T14:06:20.000Z</time>
      </trkpt>
      <trkpt lon="-87.95175019651651" lat="43.15606956370175">
        <ele>215.0</ele>
        <time>2014-02-19T14:06:23.000Z</time>
      </trkpt>
      <trkpt lon="-87.95164684765041" lat="43.156042490154505">
        <ele>214.60000610351562</ele>
        <time>2014-02-19T14:06:26.000Z</time>
      </trkpt>
      <trkpt lon="-87.95153545215726" lat="43.15601063892245">
        <ele>214.0</ele>
        <time>2014-02-19T14:06:29.000Z</time>
      </trkpt>
      <trkpt lon="-87.95143235474825" lat="43.15597836859524">
        <ele>213.60000610351562</ele>
        <time>2014-02-19T14:06:33.000Z</time>
      </trkpt>
      <trkpt lon="-87.95130897313356" lat="43.15593687817454">
        <ele>213.0</ele>
        <time>2014-02-19T14:06:40.000Z</time>
      </trkpt>
      <trkpt lon="-87.95116966590285" lat="43.155886586755514">
        <ele>212.1999969482422</ele>
        <time>2014-02-19T14:06:45.000Z</time>
      </trkpt>
      <trkpt lon="-87.9510598629713" lat="43.15583855845034">
        <ele>211.60000610351562</ele>
        <time>2014-02-19T14:06:49.000Z</time>
      </trkpt>
      <trkpt lon="-87.95096665620804" lat="43.15578667446971">
        <ele>210.1999969482422</ele>
        <time>2014-02-19T14:06:54.000Z</time>
      </trkpt>
      <trkpt lon="-87.95090027153492" lat="43.15574208274484">
        <ele>209.8000030517578</ele>
        <time>2014-02-19T14:06:58.000Z</time>
      </trkpt>
      <trkpt lon="-87.95081226155162" lat="43.155678967013955">
        <ele>209.8000030517578</ele>
        <time>2014-02-19T14:07:03.000Z</time>
      </trkpt>
      <trkpt lon="-87.95072877779603" lat="43.15562976524234">
        <ele>209.1999969482422</ele>
        <time>2014-02-19T14:07:07.000Z</time>
      </trkpt>
      <trkpt lon="-87.95065375976264" lat="43.155590957030654">
        <ele>209.8000030517578</ele>
        <time>2014-02-19T14:07:11.000Z</time>
      </trkpt>
      <trkpt lon="-87.95057429932058" lat="43.15554334782064">
        <ele>209.1999969482422</ele>
        <time>2014-02-19T14:07:16.000Z</time>
      </trkpt>
      <trkpt lon="-87.95049475505948" lat="43.15550638362765">
        <ele>209.1999969482422</ele>
        <time>2014-02-19T14:07:20.000Z</time>
      </trkpt>
      <trkpt lon="-87.95040448196232" lat="43.155468832701445">
        <ele>209.1999969482422</ele>
        <time>2014-02-19T14:07:25.000Z</time>
      </trkpt>
      <trkpt lon="-87.95031337067485" lat="43.15541384741664">
        <ele>209.1999969482422</ele>
        <time>2014-02-19T14:07:30.000Z</time>
      </trkpt>
      <trkpt lon="-87.95023365877569" lat="43.15537755377591">
        <ele>209.1999969482422</ele>
        <time>2014-02-19T14:07:35.000Z</time>
      </trkpt>
      <trkpt lon="-87.95015897601843" lat="43.155366657301784">
        <ele>209.8000030517578</ele>
        <time>2014-02-19T14:07:39.000Z</time>
      </trkpt>
      <trkpt lon="-87.95015897601843" lat="43.155366657301784">
        <ele>209.8000030517578</ele>
        <time>2014-02-19T14:07:39.000Z</time>
      </trkpt>
      <trkpt lon="-87.95012025162578" lat="43.15536053851247">
        <ele>209.1999969482422</ele>
        <time>2014-02-19T14:07:41.000Z</time>
      </trkpt>
      <trkpt lon="-87.94999075122178" lat="43.15535383298993">
        <ele>208.8000030517578</ele>
        <time>2014-02-19T14:07:47.000Z</time>
      </trkpt>
      <trkpt lon="-87.94989695772529" lat="43.15535224042833">
        <ele>209.1999969482422</ele>
        <time>2014-02-19T14:07:51.000Z</time>
      </trkpt>
      <trkpt lon="-87.94981179758906" lat="43.155342768877745">
        <ele>208.8000030517578</ele>
        <time>2014-02-19T14:07:55.000Z</time>
      </trkpt>
      <trkpt lon="-87.94968883506954" lat="43.15533463843167">
        <ele>207.8000030517578</ele>
        <time>2014-02-19T14:08:00.000Z</time>
      </trkpt>
    </trkseg>
  </trk>
</gpx>
